Fri, 02 Feb 2018 13:32:37 GMT express-session deprecated undefined resave option; provide resave option at server/index.js:29:9
Fri, 02 Feb 2018 13:32:37 GMT express-session deprecated undefined saveUninitialized option; provide saveUninitialized option at server/index.js:29:9
ok, server is running
{ address: '::', family: 'IPv6', port: 443 }
Started!
coming stage 1
RowDataPacket {
  instanceid: 'ea817f34-3d06-419e-9d9a-2a302371b980',
  siteId: '250973722',
  eventType: 'ACTIVATED',
  timeStatus: '30 Minutes' }
Start Time
1517578361398
RowDataPacket {
  instanceid: 'ea817f34-3d06-419e-9d9a-2a302371b980',
  siteId: '250973722',
  eventType: 'ACTIVATED',
  timeStatus: '30 Minutes' }
DB Result
[ [], null ]
coming stage 1
RowDataPacket {
  instanceid: 'ea817f34-3d06-419e-9d9a-2a302371b980',
  siteId: '250973722',
  eventType: 'ACTIVATED',
  timeStatus: '30 Minutes' }
Start Time
1517578364392
RowDataPacket {
  instanceid: 'ea817f34-3d06-419e-9d9a-2a302371b980',
  siteId: '250973722',
  eventType: 'ACTIVATED',
  timeStatus: '30 Minutes' }
DB Result
[ [ RowDataPacket { feeder_execution_id: 7 } ], null ]
coming stage 1
RowDataPacket {
  instanceid: 'ea817f34-3d06-419e-9d9a-2a302371b980',
  siteId: '250973722',
  eventType: 'ACTIVATED',
  timeStatus: '30 Minutes' }
Start Time
1517578367396
RowDataPacket {
  instanceid: 'ea817f34-3d06-419e-9d9a-2a302371b980',
  siteId: '250973722',
  eventType: 'ACTIVATED',
  timeStatus: '30 Minutes' }
DB Result
[ [ RowDataPacket { feeder_execution_id: 7 } ], null ]
coming stage 1
RowDataPacket {
  instanceid: 'ea817f34-3d06-419e-9d9a-2a302371b980',
  siteId: '250973722',
  eventType: 'ACTIVATED',
  timeStatus: '30 Minutes' }
Start Time
1517578370400
RowDataPacket {
  instanceid: 'ea817f34-3d06-419e-9d9a-2a302371b980',
  siteId: '250973722',
  eventType: 'ACTIVATED',
  timeStatus: '30 Minutes' }
DB Result
[ [ RowDataPacket { feeder_execution_id: 7 } ], null ]
coming stage 1
RowDataPacket {
  instanceid: 'ea817f34-3d06-419e-9d9a-2a302371b980',
  siteId: '250973722',
  eventType: 'ACTIVATED',
  timeStatus: '30 Minutes' }
Start Time
1517578373401
RowDataPacket {
  instanceid: 'ea817f34-3d06-419e-9d9a-2a302371b980',
  siteId: '250973722',
  eventType: 'ACTIVATED',
  timeStatus: '30 Minutes' }
DB Result
[ [ RowDataPacket { feeder_execution_id: 7 } ], null ]
coming stage 1
RowDataPacket {
  instanceid: 'ea817f34-3d06-419e-9d9a-2a302371b980',
  siteId: '250973722',
  eventType: 'ACTIVATED',
  timeStatus: '30 Minutes' }
Start Time
1517578376406
RowDataPacket {
  instanceid: 'ea817f34-3d06-419e-9d9a-2a302371b980',
  siteId: '250973722',
  eventType: 'ACTIVATED',
  timeStatus: '30 Minutes' }
DB Result
[ [ RowDataPacket { feeder_execution_id: 7 } ], null ]
coming stage 1
RowDataPacket {
  instanceid: 'ea817f34-3d06-419e-9d9a-2a302371b980',
  siteId: '250973722',
  eventType: 'ACTIVATED',
  timeStatus: '30 Minutes' }
Start Time
1517578379409
RowDataPacket {
  instanceid: 'ea817f34-3d06-419e-9d9a-2a302371b980',
  siteId: '250973722',
  eventType: 'ACTIVATED',
  timeStatus: '30 Minutes' }
DB Result
[ [ RowDataPacket { feeder_execution_id: 7 } ], null ]
coming stage 1
RowDataPacket {
  instanceid: 'ea817f34-3d06-419e-9d9a-2a302371b980',
  siteId: '250973722',
  eventType: 'ACTIVATED',
  timeStatus: '30 Minutes' }
Start Time
1517578382438
RowDataPacket {
  instanceid: 'ea817f34-3d06-419e-9d9a-2a302371b980',
  siteId: '250973722',
  eventType: 'ACTIVATED',
  timeStatus: '30 Minutes' }
DB Result
[ [ RowDataPacket { feeder_execution_id: 7 } ], null ]
coming stage 1
RowDataPacket {
  instanceid: 'ea817f34-3d06-419e-9d9a-2a302371b980',
  siteId: '250973722',
  eventType: 'ACTIVATED',
  timeStatus: '30 Minutes' }
Start Time
1517578385416
RowDataPacket {
  instanceid: 'ea817f34-3d06-419e-9d9a-2a302371b980',
  siteId: '250973722',
  eventType: 'ACTIVATED',
  timeStatus: '30 Minutes' }
DB Result
[ [ RowDataPacket { feeder_execution_id: 7 } ], null ]
coming stage 1
RowDataPacket {
  instanceid: 'ea817f34-3d06-419e-9d9a-2a302371b980',
  siteId: '250973722',
  eventType: 'ACTIVATED',
  timeStatus: '30 Minutes' }
Start Time
1517578388441
RowDataPacket {
  instanceid: 'ea817f34-3d06-419e-9d9a-2a302371b980',
  siteId: '250973722',
  eventType: 'ACTIVATED',
  timeStatus: '30 Minutes' }
DB Result
[ [ RowDataPacket { feeder_execution_id: 7 } ], null ]
coming stage 1
RowDataPacket {
  instanceid: 'ea817f34-3d06-419e-9d9a-2a302371b980',
  siteId: '250973722',
  eventType: 'ACTIVATED',
  timeStatus: '30 Minutes' }
Start Time
1517578391420
RowDataPacket {
  instanceid: 'ea817f34-3d06-419e-9d9a-2a302371b980',
  siteId: '250973722',
  eventType: 'ACTIVATED',
  timeStatus: '30 Minutes' }
DB Result
[ [ RowDataPacket { feeder_execution_id: 7 } ], null ]
coming stage 1
RowDataPacket {
  instanceid: 'ea817f34-3d06-419e-9d9a-2a302371b980',
  siteId: '250973722',
  eventType: 'ACTIVATED',
  timeStatus: '30 Minutes' }
Start Time
1517578394427
RowDataPacket {
  instanceid: 'ea817f34-3d06-419e-9d9a-2a302371b980',
  siteId: '250973722',
  eventType: 'ACTIVATED',
  timeStatus: '30 Minutes' }
DB Result
[ [ RowDataPacket { feeder_execution_id: 7 } ], null ]
coming stage 1
RowDataPacket {
  instanceid: 'ea817f34-3d06-419e-9d9a-2a302371b980',
  siteId: '250973722',
  eventType: 'ACTIVATED',
  timeStatus: '30 Minutes' }
Start Time
1517578397432
RowDataPacket {
  instanceid: 'ea817f34-3d06-419e-9d9a-2a302371b980',
  siteId: '250973722',
  eventType: 'ACTIVATED',
  timeStatus: '30 Minutes' }
DB Result
[ [ RowDataPacket { feeder_execution_id: 7 } ], null ]
coming stage 1
RowDataPacket {
  instanceid: 'ea817f34-3d06-419e-9d9a-2a302371b980',
  siteId: '250973722',
  eventType: 'ACTIVATED',
  timeStatus: '30 Minutes' }
Start Time
1517578400437
RowDataPacket {
  instanceid: 'ea817f34-3d06-419e-9d9a-2a302371b980',
  siteId: '250973722',
  eventType: 'ACTIVATED',
  timeStatus: '30 Minutes' }
DB Result
[ [ RowDataPacket { feeder_execution_id: 7 } ], null ]
coming stage 1
RowDataPacket {
  instanceid: 'ea817f34-3d06-419e-9d9a-2a302371b980',
  siteId: '250973722',
  eventType: 'ACTIVATED',
  timeStatus: '30 Minutes' }
Start Time
1517578403438
RowDataPacket {
  instanceid: 'ea817f34-3d06-419e-9d9a-2a302371b980',
  siteId: '250973722',
  eventType: 'ACTIVATED',
  timeStatus: '30 Minutes' }
DB Result
[ [ RowDataPacket { feeder_execution_id: 7 } ], null ]
coming stage 1
RowDataPacket {
  instanceid: 'ea817f34-3d06-419e-9d9a-2a302371b980',
  siteId: '250973722',
  eventType: 'ACTIVATED',
  timeStatus: '30 Minutes' }
Start Time
1517578406440
RowDataPacket {
  instanceid: 'ea817f34-3d06-419e-9d9a-2a302371b980',
  siteId: '250973722',
  eventType: 'ACTIVATED',
  timeStatus: '30 Minutes' }
DB Result
[ [ RowDataPacket { feeder_execution_id: 7 } ], null ]
coming stage 1
RowDataPacket {
  instanceid: 'ea817f34-3d06-419e-9d9a-2a302371b980',
  siteId: '250973722',
  eventType: 'ACTIVATED',
  timeStatus: '30 Minutes' }
Start Time
1517578409443
RowDataPacket {
  instanceid: 'ea817f34-3d06-419e-9d9a-2a302371b980',
  siteId: '250973722',
  eventType: 'ACTIVATED',
  timeStatus: '30 Minutes' }
DB Result
[ [ RowDataPacket { feeder_execution_id: 7 } ], null ]
coming stage 1
RowDataPacket {
  instanceid: 'ea817f34-3d06-419e-9d9a-2a302371b980',
  siteId: '250973722',
  eventType: 'ACTIVATED',
  timeStatus: '30 Minutes' }
Start Time
1517578412446
RowDataPacket {
  instanceid: 'ea817f34-3d06-419e-9d9a-2a302371b980',
  siteId: '250973722',
  eventType: 'ACTIVATED',
  timeStatus: '30 Minutes' }
DB Result
[ [ RowDataPacket { feeder_execution_id: 7 } ], null ]
coming stage 1
RowDataPacket {
  instanceid: 'ea817f34-3d06-419e-9d9a-2a302371b980',
  siteId: '250973722',
  eventType: 'ACTIVATED',
  timeStatus: '30 Minutes' }
Start Time
1517578415452
RowDataPacket {
  instanceid: 'ea817f34-3d06-419e-9d9a-2a302371b980',
  siteId: '250973722',
  eventType: 'ACTIVATED',
  timeStatus: '30 Minutes' }
DB Result
[ [ RowDataPacket { feeder_execution_id: 7 } ], null ]
coming stage 1
RowDataPacket {
  instanceid: 'ea817f34-3d06-419e-9d9a-2a302371b980',
  siteId: '250973722',
  eventType: 'ACTIVATED',
  timeStatus: '30 Minutes' }
Start Time
1517578418453
RowDataPacket {
  instanceid: 'ea817f34-3d06-419e-9d9a-2a302371b980',
  siteId: '250973722',
  eventType: 'ACTIVATED',
  timeStatus: '30 Minutes' }
DB Result
[ [ RowDataPacket { feeder_execution_id: 7 } ], null ]
coming stage 1
RowDataPacket {
  instanceid: 'ea817f34-3d06-419e-9d9a-2a302371b980',
  siteId: '250973722',
  eventType: 'ACTIVATED',
  timeStatus: '30 Minutes' }
Start Time
1517578421456
RowDataPacket {
  instanceid: 'ea817f34-3d06-419e-9d9a-2a302371b980',
  siteId: '250973722',
  eventType: 'ACTIVATED',
  timeStatus: '30 Minutes' }
DB Result
[ [ RowDataPacket { feeder_execution_id: 7 } ], null ]
coming stage 1
RowDataPacket {
  instanceid: 'ea817f34-3d06-419e-9d9a-2a302371b980',
  siteId: '250973722',
  eventType: 'ACTIVATED',
  timeStatus: '30 Minutes' }
Start Time
1517578424460
RowDataPacket {
  instanceid: 'ea817f34-3d06-419e-9d9a-2a302371b980',
  siteId: '250973722',
  eventType: 'ACTIVATED',
  timeStatus: '30 Minutes' }
DB Result
[ [ RowDataPacket { feeder_execution_id: 7 } ], null ]
coming stage 1
RowDataPacket {
  instanceid: 'ea817f34-3d06-419e-9d9a-2a302371b980',
  siteId: '250973722',
  eventType: 'ACTIVATED',
  timeStatus: '30 Minutes' }
Start Time
1517578427462
RowDataPacket {
  instanceid: 'ea817f34-3d06-419e-9d9a-2a302371b980',
  siteId: '250973722',
  eventType: 'ACTIVATED',
  timeStatus: '30 Minutes' }
DB Result
[ [ RowDataPacket { feeder_execution_id: 7 } ], null ]
coming stage 1
RowDataPacket {
  instanceid: 'ea817f34-3d06-419e-9d9a-2a302371b980',
  siteId: '250973722',
  eventType: 'ACTIVATED',
  timeStatus: '30 Minutes' }
Start Time
1517578430465
RowDataPacket {
  instanceid: 'ea817f34-3d06-419e-9d9a-2a302371b980',
  siteId: '250973722',
  eventType: 'ACTIVATED',
  timeStatus: '30 Minutes' }
DB Result
[ [ RowDataPacket { feeder_execution_id: 7 } ], null ]
coming stage 1
RowDataPacket {
  instanceid: 'ea817f34-3d06-419e-9d9a-2a302371b980',
  siteId: '250973722',
  eventType: 'ACTIVATED',
  timeStatus: '30 Minutes' }
Start Time
1517578433465
RowDataPacket {
  instanceid: 'ea817f34-3d06-419e-9d9a-2a302371b980',
  siteId: '250973722',
  eventType: 'ACTIVATED',
  timeStatus: '30 Minutes' }
DB Result
[ [ RowDataPacket { feeder_execution_id: 7 } ], null ]
coming stage 1
RowDataPacket {
  instanceid: 'ea817f34-3d06-419e-9d9a-2a302371b980',
  siteId: '250973722',
  eventType: 'ACTIVATED',
  timeStatus: '30 Minutes' }
Start Time
1517578436471
RowDataPacket {
  instanceid: 'ea817f34-3d06-419e-9d9a-2a302371b980',
  siteId: '250973722',
  eventType: 'ACTIVATED',
  timeStatus: '30 Minutes' }
DB Result
[ [ RowDataPacket { feeder_execution_id: 7 } ], null ]
coming stage 1
RowDataPacket {
  instanceid: 'ea817f34-3d06-419e-9d9a-2a302371b980',
  siteId: '250973722',
  eventType: 'ACTIVATED',
  timeStatus: '30 Minutes' }
Start Time
1517578439473
RowDataPacket {
  instanceid: 'ea817f34-3d06-419e-9d9a-2a302371b980',
  siteId: '250973722',
  eventType: 'ACTIVATED',
  timeStatus: '30 Minutes' }
DB Result
[ [ RowDataPacket { feeder_execution_id: 7 } ], null ]
coming stage 1
RowDataPacket {
  instanceid: 'ea817f34-3d06-419e-9d9a-2a302371b980',
  siteId: '250973722',
  eventType: 'ACTIVATED',
  timeStatus: '30 Minutes' }
Start Time
1517578442474
RowDataPacket {
  instanceid: 'ea817f34-3d06-419e-9d9a-2a302371b980',
  siteId: '250973722',
  eventType: 'ACTIVATED',
  timeStatus: '30 Minutes' }
DB Result
[ [ RowDataPacket { feeder_execution_id: 7 } ], null ]
coming stage 1
RowDataPacket {
  instanceid: 'ea817f34-3d06-419e-9d9a-2a302371b980',
  siteId: '250973722',
  eventType: 'ACTIVATED',
  timeStatus: '30 Minutes' }
Start Time
1517578445478
RowDataPacket {
  instanceid: 'ea817f34-3d06-419e-9d9a-2a302371b980',
  siteId: '250973722',
  eventType: 'ACTIVATED',
  timeStatus: '30 Minutes' }
DB Result
[ [ RowDataPacket { feeder_execution_id: 7 } ], null ]
coming stage 1
RowDataPacket {
  instanceid: 'ea817f34-3d06-419e-9d9a-2a302371b980',
  siteId: '250973722',
  eventType: 'ACTIVATED',
  timeStatus: '30 Minutes' }
Start Time
1517578448481
RowDataPacket {
  instanceid: 'ea817f34-3d06-419e-9d9a-2a302371b980',
  siteId: '250973722',
  eventType: 'ACTIVATED',
  timeStatus: '30 Minutes' }
DB Result
[ [ RowDataPacket { feeder_execution_id: 7 } ], null ]
coming stage 1
RowDataPacket {
  instanceid: 'ea817f34-3d06-419e-9d9a-2a302371b980',
  siteId: '250973722',
  eventType: 'ACTIVATED',
  timeStatus: '30 Minutes' }
Start Time
1517578451484
RowDataPacket {
  instanceid: 'ea817f34-3d06-419e-9d9a-2a302371b980',
  siteId: '250973722',
  eventType: 'ACTIVATED',
  timeStatus: '30 Minutes' }
DB Result
[ [ RowDataPacket { feeder_execution_id: 7 } ], null ]
coming stage 1
RowDataPacket {
  instanceid: 'ea817f34-3d06-419e-9d9a-2a302371b980',
  siteId: '250973722',
  eventType: 'ACTIVATED',
  timeStatus: '30 Minutes' }
Start Time
1517578454487
RowDataPacket {
  instanceid: 'ea817f34-3d06-419e-9d9a-2a302371b980',
  siteId: '250973722',
  eventType: 'ACTIVATED',
  timeStatus: '30 Minutes' }
DB Result
[ [ RowDataPacket { feeder_execution_id: 7 } ], null ]
coming stage 1
RowDataPacket {
  instanceid: 'ea817f34-3d06-419e-9d9a-2a302371b980',
  siteId: '250973722',
  eventType: 'ACTIVATED',
  timeStatus: '30 Minutes' }
Start Time
1517578457504
RowDataPacket {
  instanceid: 'ea817f34-3d06-419e-9d9a-2a302371b980',
  siteId: '250973722',
  eventType: 'ACTIVATED',
  timeStatus: '30 Minutes' }
DB Result
[ [ RowDataPacket { feeder_execution_id: 7 } ], null ]
coming stage 1
RowDataPacket {
  instanceid: 'ea817f34-3d06-419e-9d9a-2a302371b980',
  siteId: '250973722',
  eventType: 'ACTIVATED',
  timeStatus: '30 Minutes' }
Start Time
1517578460497
RowDataPacket {
  instanceid: 'ea817f34-3d06-419e-9d9a-2a302371b980',
  siteId: '250973722',
  eventType: 'ACTIVATED',
  timeStatus: '30 Minutes' }
DB Result
[ [ RowDataPacket { feeder_execution_id: 7 } ], null ]
coming stage 1
RowDataPacket {
  instanceid: 'ea817f34-3d06-419e-9d9a-2a302371b980',
  siteId: '250973722',
  eventType: 'ACTIVATED',
  timeStatus: '30 Minutes' }
Start Time
1517578463501
RowDataPacket {
  instanceid: 'ea817f34-3d06-419e-9d9a-2a302371b980',
  siteId: '250973722',
  eventType: 'ACTIVATED',
  timeStatus: '30 Minutes' }
DB Result
[ [ RowDataPacket { feeder_execution_id: 7 } ], null ]
coming stage 1
RowDataPacket {
  instanceid: 'ea817f34-3d06-419e-9d9a-2a302371b980',
  siteId: '250973722',
  eventType: 'ACTIVATED',
  timeStatus: '30 Minutes' }
Start Time
1517578466504
RowDataPacket {
  instanceid: 'ea817f34-3d06-419e-9d9a-2a302371b980',
  siteId: '250973722',
  eventType: 'ACTIVATED',
  timeStatus: '30 Minutes' }
DB Result
[ [ RowDataPacket { feeder_execution_id: 7 } ], null ]
coming stage 1
RowDataPacket {
  instanceid: 'ea817f34-3d06-419e-9d9a-2a302371b980',
  siteId: '250973722',
  eventType: 'ACTIVATED',
  timeStatus: '30 Minutes' }
Start Time
1517578469507
RowDataPacket {
  instanceid: 'ea817f34-3d06-419e-9d9a-2a302371b980',
  siteId: '250973722',
  eventType: 'ACTIVATED',
  timeStatus: '30 Minutes' }
DB Result
[ [ RowDataPacket { feeder_execution_id: 7 } ], null ]
coming stage 1
RowDataPacket {
  instanceid: 'ea817f34-3d06-419e-9d9a-2a302371b980',
  siteId: '250973722',
  eventType: 'ACTIVATED',
  timeStatus: '30 Minutes' }
Start Time
1517578472511
RowDataPacket {
  instanceid: 'ea817f34-3d06-419e-9d9a-2a302371b980',
  siteId: '250973722',
  eventType: 'ACTIVATED',
  timeStatus: '30 Minutes' }
DB Result
[ [ RowDataPacket { feeder_execution_id: 7 } ], null ]
coming stage 1
RowDataPacket {
  instanceid: 'ea817f34-3d06-419e-9d9a-2a302371b980',
  siteId: '250973722',
  eventType: 'ACTIVATED',
  timeStatus: '30 Minutes' }
Start Time
1517578475514
RowDataPacket {
  instanceid: 'ea817f34-3d06-419e-9d9a-2a302371b980',
  siteId: '250973722',
  eventType: 'ACTIVATED',
  timeStatus: '30 Minutes' }
DB Result
[ [ RowDataPacket { feeder_execution_id: 7 } ], null ]
coming stage 1
RowDataPacket {
  instanceid: 'ea817f34-3d06-419e-9d9a-2a302371b980',
  siteId: '250973722',
  eventType: 'ACTIVATED',
  timeStatus: '30 Minutes' }
Start Time
1517578478515
RowDataPacket {
  instanceid: 'ea817f34-3d06-419e-9d9a-2a302371b980',
  siteId: '250973722',
  eventType: 'ACTIVATED',
  timeStatus: '30 Minutes' }
DB Result
[ [ RowDataPacket { feeder_execution_id: 7 } ], null ]
coming stage 1
RowDataPacket {
  instanceid: 'ea817f34-3d06-419e-9d9a-2a302371b980',
  siteId: '250973722',
  eventType: 'ACTIVATED',
  timeStatus: '30 Minutes' }
Start Time
1517578481517
RowDataPacket {
  instanceid: 'ea817f34-3d06-419e-9d9a-2a302371b980',
  siteId: '250973722',
  eventType: 'ACTIVATED',
  timeStatus: '30 Minutes' }
DB Result
[ [ RowDataPacket { feeder_execution_id: 7 } ], null ]
coming stage 1
RowDataPacket {
  instanceid: 'ea817f34-3d06-419e-9d9a-2a302371b980',
  siteId: '250973722',
  eventType: 'ACTIVATED',
  timeStatus: '30 Minutes' }
Start Time
1517578484520
RowDataPacket {
  instanceid: 'ea817f34-3d06-419e-9d9a-2a302371b980',
  siteId: '250973722',
  eventType: 'ACTIVATED',
  timeStatus: '30 Minutes' }
DB Result
[ [ RowDataPacket { feeder_execution_id: 7 } ], null ]
coming stage 1
RowDataPacket {
  instanceid: 'ea817f34-3d06-419e-9d9a-2a302371b980',
  siteId: '250973722',
  eventType: 'ACTIVATED',
  timeStatus: '30 Minutes' }
Start Time
1517578487521
RowDataPacket {
  instanceid: 'ea817f34-3d06-419e-9d9a-2a302371b980',
  siteId: '250973722',
  eventType: 'ACTIVATED',
  timeStatus: '30 Minutes' }
DB Result
[ [ RowDataPacket { feeder_execution_id: 7 } ], null ]
``````````````````````````````````
``````````````````````````````````
``````````````````````````````````
``````````````````````````````````
`````````Refreshed````````````````
``````````````````````````````````
``````````````````````````````````
``````````````````````````````````
``````````````````````````````````
coming stage 1
RowDataPacket {
  instanceid: 'ea817f34-3d06-419e-9d9a-2a302371b980',
  siteId: '250973722',
  eventType: 'ACTIVATED',
  timeStatus: '30 Minutes' }
Start Time
1517578490788
RowDataPacket {
  instanceid: 'ea817f34-3d06-419e-9d9a-2a302371b980',
  siteId: '250973722',
  eventType: 'ACTIVATED',
  timeStatus: '30 Minutes' }
DB Result
[ [ RowDataPacket { feeder_execution_id: 7 } ], null ]
coming stage 1
RowDataPacket {
  instanceid: 'ea817f34-3d06-419e-9d9a-2a302371b980',
  siteId: '250973722',
  eventType: 'ACTIVATED',
  timeStatus: '30 Minutes' }
Start Time
1517578493791
RowDataPacket {
  instanceid: 'ea817f34-3d06-419e-9d9a-2a302371b980',
  siteId: '250973722',
  eventType: 'ACTIVATED',
  timeStatus: '30 Minutes' }
DB Result
[ [ RowDataPacket { feeder_execution_id: 7 } ], null ]
coming stage 1
RowDataPacket {
  instanceid: 'ea817f34-3d06-419e-9d9a-2a302371b980',
  siteId: '250973722',
  eventType: 'ACTIVATED',
  timeStatus: '30 Minutes' }
Start Time
1517578496795
RowDataPacket {
  instanceid: 'ea817f34-3d06-419e-9d9a-2a302371b980',
  siteId: '250973722',
  eventType: 'ACTIVATED',
  timeStatus: '30 Minutes' }
DB Result
[ [ RowDataPacket { feeder_execution_id: 7 } ], null ]
coming stage 1
RowDataPacket {
  instanceid: 'ea817f34-3d06-419e-9d9a-2a302371b980',
  siteId: '250973722',
  eventType: 'ACTIVATED',
  timeStatus: '30 Minutes' }
Start Time
1517578499799
RowDataPacket {
  instanceid: 'ea817f34-3d06-419e-9d9a-2a302371b980',
  siteId: '250973722',
  eventType: 'ACTIVATED',
  timeStatus: '30 Minutes' }
DB Result
[ [ RowDataPacket { feeder_execution_id: 7 } ], null ]
coming stage 1
RowDataPacket {
  instanceid: 'ea817f34-3d06-419e-9d9a-2a302371b980',
  siteId: '250973722',
  eventType: 'ACTIVATED',
  timeStatus: '30 Minutes' }
Start Time
1517578502804
RowDataPacket {
  instanceid: 'ea817f34-3d06-419e-9d9a-2a302371b980',
  siteId: '250973722',
  eventType: 'ACTIVATED',
  timeStatus: '30 Minutes' }
DB Result
[ [ RowDataPacket { feeder_execution_id: 7 } ], null ]
coming stage 1
RowDataPacket {
  instanceid: 'ea817f34-3d06-419e-9d9a-2a302371b980',
  siteId: '250973722',
  eventType: 'ACTIVATED',
  timeStatus: '30 Minutes' }
Start Time
1517578505808
RowDataPacket {
  instanceid: 'ea817f34-3d06-419e-9d9a-2a302371b980',
  siteId: '250973722',
  eventType: 'ACTIVATED',
  timeStatus: '30 Minutes' }
DB Result
[ [ RowDataPacket { feeder_execution_id: 7 } ], null ]
coming stage 1
RowDataPacket {
  instanceid: 'ea817f34-3d06-419e-9d9a-2a302371b980',
  siteId: '250973722',
  eventType: 'ACTIVATED',
  timeStatus: '30 Minutes' }
Start Time
1517578508811
RowDataPacket {
  instanceid: 'ea817f34-3d06-419e-9d9a-2a302371b980',
  siteId: '250973722',
  eventType: 'ACTIVATED',
  timeStatus: '30 Minutes' }
DB Result
[ [ RowDataPacket { feeder_execution_id: 7 } ], null ]
coming stage 1
RowDataPacket {
  instanceid: 'ea817f34-3d06-419e-9d9a-2a302371b980',
  siteId: '250973722',
  eventType: 'ACTIVATED',
  timeStatus: '30 Minutes' }
Start Time
1517578511815
RowDataPacket {
  instanceid: 'ea817f34-3d06-419e-9d9a-2a302371b980',
  siteId: '250973722',
  eventType: 'ACTIVATED',
  timeStatus: '30 Minutes' }
DB Result
[ [ RowDataPacket { feeder_execution_id: 7 } ], null ]
coming stage 1
RowDataPacket {
  instanceid: 'ea817f34-3d06-419e-9d9a-2a302371b980',
  siteId: '250973722',
  eventType: 'ACTIVATED',
  timeStatus: '30 Minutes' }
Start Time
1517578514817
RowDataPacket {
  instanceid: 'ea817f34-3d06-419e-9d9a-2a302371b980',
  siteId: '250973722',
  eventType: 'ACTIVATED',
  timeStatus: '30 Minutes' }
DB Result
[ [ RowDataPacket { feeder_execution_id: 7 } ], null ]
coming stage 1
RowDataPacket {
  instanceid: 'ea817f34-3d06-419e-9d9a-2a302371b980',
  siteId: '250973722',
  eventType: 'ACTIVATED',
  timeStatus: '30 Minutes' }
Start Time
1517578517821
RowDataPacket {
  instanceid: 'ea817f34-3d06-419e-9d9a-2a302371b980',
  siteId: '250973722',
  eventType: 'ACTIVATED',
  timeStatus: '30 Minutes' }
DB Result
[ [ RowDataPacket { feeder_execution_id: 7 } ], null ]
coming stage 1
RowDataPacket {
  instanceid: 'ea817f34-3d06-419e-9d9a-2a302371b980',
  siteId: '250973722',
  eventType: 'ACTIVATED',
  timeStatus: '30 Minutes' }
Start Time
1517578520824
RowDataPacket {
  instanceid: 'ea817f34-3d06-419e-9d9a-2a302371b980',
  siteId: '250973722',
  eventType: 'ACTIVATED',
  timeStatus: '30 Minutes' }
DB Result
[ [ RowDataPacket { feeder_execution_id: 7 } ], null ]
coming stage 1
RowDataPacket {
  instanceid: 'ea817f34-3d06-419e-9d9a-2a302371b980',
  siteId: '250973722',
  eventType: 'ACTIVATED',
  timeStatus: '30 Minutes' }
Start Time
1517578523828
RowDataPacket {
  instanceid: 'ea817f34-3d06-419e-9d9a-2a302371b980',
  siteId: '250973722',
  eventType: 'ACTIVATED',
  timeStatus: '30 Minutes' }
DB Result
[ [ RowDataPacket { feeder_execution_id: 7 } ], null ]
coming stage 1
RowDataPacket {
  instanceid: 'ea817f34-3d06-419e-9d9a-2a302371b980',
  siteId: '250973722',
  eventType: 'ACTIVATED',
  timeStatus: '30 Minutes' }
Start Time
1517578526830
RowDataPacket {
  instanceid: 'ea817f34-3d06-419e-9d9a-2a302371b980',
  siteId: '250973722',
  eventType: 'ACTIVATED',
  timeStatus: '30 Minutes' }
DB Result
[ [ RowDataPacket { feeder_execution_id: 7 } ], null ]
coming stage 1
RowDataPacket {
  instanceid: 'ea817f34-3d06-419e-9d9a-2a302371b980',
  siteId: '250973722',
  eventType: 'ACTIVATED',
  timeStatus: '30 Minutes' }
Start Time
1517578529834
RowDataPacket {
  instanceid: 'ea817f34-3d06-419e-9d9a-2a302371b980',
  siteId: '250973722',
  eventType: 'ACTIVATED',
  timeStatus: '30 Minutes' }
DB Result
[ [ RowDataPacket { feeder_execution_id: 7 } ], null ]
coming stage 1
RowDataPacket {
  instanceid: 'ea817f34-3d06-419e-9d9a-2a302371b980',
  siteId: '250973722',
  eventType: 'ACTIVATED',
  timeStatus: '30 Minutes' }
Start Time
1517578532837
RowDataPacket {
  instanceid: 'ea817f34-3d06-419e-9d9a-2a302371b980',
  siteId: '250973722',
  eventType: 'ACTIVATED',
  timeStatus: '30 Minutes' }
DB Result
[ [ RowDataPacket { feeder_execution_id: 7 } ], null ]
coming stage 1
RowDataPacket {
  instanceid: 'ea817f34-3d06-419e-9d9a-2a302371b980',
  siteId: '250973722',
  eventType: 'ACTIVATED',
  timeStatus: '30 Minutes' }
Start Time
1517578535839
RowDataPacket {
  instanceid: 'ea817f34-3d06-419e-9d9a-2a302371b980',
  siteId: '250973722',
  eventType: 'ACTIVATED',
  timeStatus: '30 Minutes' }
DB Result
[ [ RowDataPacket { feeder_execution_id: 7 } ], null ]
coming stage 1
RowDataPacket {
  instanceid: 'ea817f34-3d06-419e-9d9a-2a302371b980',
  siteId: '250973722',
  eventType: 'ACTIVATED',
  timeStatus: '30 Minutes' }
Start Time
1517578538843
RowDataPacket {
  instanceid: 'ea817f34-3d06-419e-9d9a-2a302371b980',
  siteId: '250973722',
  eventType: 'ACTIVATED',
  timeStatus: '30 Minutes' }
DB Result
[ [ RowDataPacket { feeder_execution_id: 7 } ], null ]
coming stage 1
RowDataPacket {
  instanceid: 'ea817f34-3d06-419e-9d9a-2a302371b980',
  siteId: '250973722',
  eventType: 'ACTIVATED',
  timeStatus: '30 Minutes' }
Start Time
1517578541846
RowDataPacket {
  instanceid: 'ea817f34-3d06-419e-9d9a-2a302371b980',
  siteId: '250973722',
  eventType: 'ACTIVATED',
  timeStatus: '30 Minutes' }
DB Result
[ [ RowDataPacket { feeder_execution_id: 7 } ], null ]
coming stage 1
RowDataPacket {
  instanceid: 'ea817f34-3d06-419e-9d9a-2a302371b980',
  siteId: '250973722',
  eventType: 'ACTIVATED',
  timeStatus: '30 Minutes' }
Start Time
1517578544851
RowDataPacket {
  instanceid: 'ea817f34-3d06-419e-9d9a-2a302371b980',
  siteId: '250973722',
  eventType: 'ACTIVATED',
  timeStatus: '30 Minutes' }
DB Result
[ [ RowDataPacket { feeder_execution_id: 7 } ], null ]
coming stage 1
RowDataPacket {
  instanceid: 'ea817f34-3d06-419e-9d9a-2a302371b980',
  siteId: '250973722',
  eventType: 'ACTIVATED',
  timeStatus: '30 Minutes' }
Start Time
1517578547854
RowDataPacket {
  instanceid: 'ea817f34-3d06-419e-9d9a-2a302371b980',
  siteId: '250973722',
  eventType: 'ACTIVATED',
  timeStatus: '30 Minutes' }
DB Result
[ [ RowDataPacket { feeder_execution_id: 7 } ], null ]
coming stage 1
RowDataPacket {
  instanceid: 'ea817f34-3d06-419e-9d9a-2a302371b980',
  siteId: '250973722',
  eventType: 'ACTIVATED',
  timeStatus: '30 Minutes' }
Start Time
1517578550857
RowDataPacket {
  instanceid: 'ea817f34-3d06-419e-9d9a-2a302371b980',
  siteId: '250973722',
  eventType: 'ACTIVATED',
  timeStatus: '30 Minutes' }
DB Result
[ [ RowDataPacket { feeder_execution_id: 7 } ], null ]
coming stage 1
RowDataPacket {
  instanceid: 'ea817f34-3d06-419e-9d9a-2a302371b980',
  siteId: '250973722',
  eventType: 'ACTIVATED',
  timeStatus: '30 Minutes' }
Start Time
1517578553861
RowDataPacket {
  instanceid: 'ea817f34-3d06-419e-9d9a-2a302371b980',
  siteId: '250973722',
  eventType: 'ACTIVATED',
  timeStatus: '30 Minutes' }
DB Result
[ [ RowDataPacket { feeder_execution_id: 7 } ], null ]
coming stage 1
RowDataPacket {
  instanceid: 'ea817f34-3d06-419e-9d9a-2a302371b980',
  siteId: '250973722',
  eventType: 'ACTIVATED',
  timeStatus: '30 Minutes' }
Start Time
1517578556869
RowDataPacket {
  instanceid: 'ea817f34-3d06-419e-9d9a-2a302371b980',
  siteId: '250973722',
  eventType: 'ACTIVATED',
  timeStatus: '30 Minutes' }
DB Result
[ [ RowDataPacket { feeder_execution_id: 7 } ], null ]
coming stage 1
RowDataPacket {
  instanceid: 'ea817f34-3d06-419e-9d9a-2a302371b980',
  siteId: '250973722',
  eventType: 'ACTIVATED',
  timeStatus: '30 Minutes' }
Start Time
1517578559864
RowDataPacket {
  instanceid: 'ea817f34-3d06-419e-9d9a-2a302371b980',
  siteId: '250973722',
  eventType: 'ACTIVATED',
  timeStatus: '30 Minutes' }
DB Result
[ [ RowDataPacket { feeder_execution_id: 7 } ], null ]
coming stage 1
RowDataPacket {
  instanceid: 'ea817f34-3d06-419e-9d9a-2a302371b980',
  siteId: '250973722',
  eventType: 'ACTIVATED',
  timeStatus: '30 Minutes' }
Start Time
1517578562868
RowDataPacket {
  instanceid: 'ea817f34-3d06-419e-9d9a-2a302371b980',
  siteId: '250973722',
  eventType: 'ACTIVATED',
  timeStatus: '30 Minutes' }
DB Result
[ [ RowDataPacket { feeder_execution_id: 7 } ], null ]
coming stage 1
RowDataPacket {
  instanceid: 'ea817f34-3d06-419e-9d9a-2a302371b980',
  siteId: '250973722',
  eventType: 'ACTIVATED',
  timeStatus: '30 Minutes' }
Start Time
1517578565872
RowDataPacket {
  instanceid: 'ea817f34-3d06-419e-9d9a-2a302371b980',
  siteId: '250973722',
  eventType: 'ACTIVATED',
  timeStatus: '30 Minutes' }
DB Result
[ [ RowDataPacket { feeder_execution_id: 7 } ], null ]
coming stage 1
RowDataPacket {
  instanceid: 'ea817f34-3d06-419e-9d9a-2a302371b980',
  siteId: '250973722',
  eventType: 'ACTIVATED',
  timeStatus: '30 Minutes' }
Start Time
1517578568876
RowDataPacket {
  instanceid: 'ea817f34-3d06-419e-9d9a-2a302371b980',
  siteId: '250973722',
  eventType: 'ACTIVATED',
  timeStatus: '30 Minutes' }
DB Result
[ [ RowDataPacket { feeder_execution_id: 7 } ], null ]
coming stage 1
RowDataPacket {
  instanceid: 'ea817f34-3d06-419e-9d9a-2a302371b980',
  siteId: '250973722',
  eventType: 'ACTIVATED',
  timeStatus: '30 Minutes' }
Start Time
1517578571879
RowDataPacket {
  instanceid: 'ea817f34-3d06-419e-9d9a-2a302371b980',
  siteId: '250973722',
  eventType: 'ACTIVATED',
  timeStatus: '30 Minutes' }
DB Result
[ [ RowDataPacket { feeder_execution_id: 7 } ], null ]
coming stage 1
RowDataPacket {
  instanceid: 'ea817f34-3d06-419e-9d9a-2a302371b980',
  siteId: '250973722',
  eventType: 'ACTIVATED',
  timeStatus: '30 Minutes' }
Start Time
1517578574882
RowDataPacket {
  instanceid: 'ea817f34-3d06-419e-9d9a-2a302371b980',
  siteId: '250973722',
  eventType: 'ACTIVATED',
  timeStatus: '30 Minutes' }
DB Result
[ [ RowDataPacket { feeder_execution_id: 7 } ], null ]
coming stage 1
RowDataPacket {
  instanceid: 'ea817f34-3d06-419e-9d9a-2a302371b980',
  siteId: '250973722',
  eventType: 'ACTIVATED',
  timeStatus: '30 Minutes' }
Start Time
1517578577886
RowDataPacket {
  instanceid: 'ea817f34-3d06-419e-9d9a-2a302371b980',
  siteId: '250973722',
  eventType: 'ACTIVATED',
  timeStatus: '30 Minutes' }
DB Result
[ [ RowDataPacket { feeder_execution_id: 7 } ], null ]
coming stage 1
RowDataPacket {
  instanceid: 'ea817f34-3d06-419e-9d9a-2a302371b980',
  siteId: '250973722',
  eventType: 'ACTIVATED',
  timeStatus: '30 Minutes' }
Start Time
1517578580890
RowDataPacket {
  instanceid: 'ea817f34-3d06-419e-9d9a-2a302371b980',
  siteId: '250973722',
  eventType: 'ACTIVATED',
  timeStatus: '30 Minutes' }
DB Result
[ [ RowDataPacket { feeder_execution_id: 7 } ], null ]
coming stage 1
RowDataPacket {
  instanceid: 'ea817f34-3d06-419e-9d9a-2a302371b980',
  siteId: '250973722',
  eventType: 'ACTIVATED',
  timeStatus: '30 Minutes' }
Start Time
1517578583891
RowDataPacket {
  instanceid: 'ea817f34-3d06-419e-9d9a-2a302371b980',
  siteId: '250973722',
  eventType: 'ACTIVATED',
  timeStatus: '30 Minutes' }
DB Result
[ [ RowDataPacket { feeder_execution_id: 7 } ], null ]
coming stage 1
RowDataPacket {
  instanceid: 'ea817f34-3d06-419e-9d9a-2a302371b980',
  siteId: '250973722',
  eventType: 'ACTIVATED',
  timeStatus: '30 Minutes' }
Start Time
1517578586894
RowDataPacket {
  instanceid: 'ea817f34-3d06-419e-9d9a-2a302371b980',
  siteId: '250973722',
  eventType: 'ACTIVATED',
  timeStatus: '30 Minutes' }
DB Result
[ [ RowDataPacket { feeder_execution_id: 7 } ], null ]
coming stage 1
RowDataPacket {
  instanceid: 'ea817f34-3d06-419e-9d9a-2a302371b980',
  siteId: '250973722',
  eventType: 'ACTIVATED',
  timeStatus: '30 Minutes' }
Start Time
1517578589898
RowDataPacket {
  instanceid: 'ea817f34-3d06-419e-9d9a-2a302371b980',
  siteId: '250973722',
  eventType: 'ACTIVATED',
  timeStatus: '30 Minutes' }
DB Result
[ [ RowDataPacket { feeder_execution_id: 7 } ], null ]
coming stage 1
RowDataPacket {
  instanceid: 'ea817f34-3d06-419e-9d9a-2a302371b980',
  siteId: '250973722',
  eventType: 'ACTIVATED',
  timeStatus: '30 Minutes' }
Start Time
1517578592902
RowDataPacket {
  instanceid: 'ea817f34-3d06-419e-9d9a-2a302371b980',
  siteId: '250973722',
  eventType: 'ACTIVATED',
  timeStatus: '30 Minutes' }
DB Result
[ [ RowDataPacket { feeder_execution_id: 7 } ], null ]
coming stage 1
RowDataPacket {
  instanceid: 'ea817f34-3d06-419e-9d9a-2a302371b980',
  siteId: '250973722',
  eventType: 'ACTIVATED',
  timeStatus: '30 Minutes' }
Start Time
1517578595908
RowDataPacket {
  instanceid: 'ea817f34-3d06-419e-9d9a-2a302371b980',
  siteId: '250973722',
  eventType: 'ACTIVATED',
  timeStatus: '30 Minutes' }
DB Result
[ [ RowDataPacket { feeder_execution_id: 7 } ], null ]
coming stage 1
RowDataPacket {
  instanceid: 'ea817f34-3d06-419e-9d9a-2a302371b980',
  siteId: '250973722',
  eventType: 'ACTIVATED',
  timeStatus: '30 Minutes' }
Start Time
1517578598906
RowDataPacket {
  instanceid: 'ea817f34-3d06-419e-9d9a-2a302371b980',
  siteId: '250973722',
  eventType: 'ACTIVATED',
  timeStatus: '30 Minutes' }
DB Result
[ [ RowDataPacket { feeder_execution_id: 7 } ], null ]
coming stage 1
RowDataPacket {
  instanceid: 'ea817f34-3d06-419e-9d9a-2a302371b980',
  siteId: '250973722',
  eventType: 'ACTIVATED',
  timeStatus: '30 Minutes' }
Start Time
1517578601910
RowDataPacket {
  instanceid: 'ea817f34-3d06-419e-9d9a-2a302371b980',
  siteId: '250973722',
  eventType: 'ACTIVATED',
  timeStatus: '30 Minutes' }
DB Result
[ [ RowDataPacket { feeder_execution_id: 7 } ], null ]
coming stage 1
RowDataPacket {
  instanceid: 'ea817f34-3d06-419e-9d9a-2a302371b980',
  siteId: '250973722',
  eventType: 'ACTIVATED',
  timeStatus: '30 Minutes' }
Start Time
1517578604913
RowDataPacket {
  instanceid: 'ea817f34-3d06-419e-9d9a-2a302371b980',
  siteId: '250973722',
  eventType: 'ACTIVATED',
  timeStatus: '30 Minutes' }
DB Result
[ [ RowDataPacket { feeder_execution_id: 7 } ], null ]
coming stage 1
RowDataPacket {
  instanceid: 'ea817f34-3d06-419e-9d9a-2a302371b980',
  siteId: '250973722',
  eventType: 'ACTIVATED',
  timeStatus: '30 Minutes' }
Start Time
1517578607914
RowDataPacket {
  instanceid: 'ea817f34-3d06-419e-9d9a-2a302371b980',
  siteId: '250973722',
  eventType: 'ACTIVATED',
  timeStatus: '30 Minutes' }
DB Result
[ [ RowDataPacket { feeder_execution_id: 7 } ], null ]
coming stage 1
RowDataPacket {
  instanceid: 'ea817f34-3d06-419e-9d9a-2a302371b980',
  siteId: '250973722',
  eventType: 'ACTIVATED',
  timeStatus: '30 Minutes' }
Start Time
1517578610917
RowDataPacket {
  instanceid: 'ea817f34-3d06-419e-9d9a-2a302371b980',
  siteId: '250973722',
  eventType: 'ACTIVATED',
  timeStatus: '30 Minutes' }
DB Result
[ [ RowDataPacket { feeder_execution_id: 7 } ], null ]
coming stage 1
RowDataPacket {
  instanceid: 'ea817f34-3d06-419e-9d9a-2a302371b980',
  siteId: '250973722',
  eventType: 'ACTIVATED',
  timeStatus: '30 Minutes' }
Start Time
1517578613921
RowDataPacket {
  instanceid: 'ea817f34-3d06-419e-9d9a-2a302371b980',
  siteId: '250973722',
  eventType: 'ACTIVATED',
  timeStatus: '30 Minutes' }
DB Result
[ [ RowDataPacket { feeder_execution_id: 7 } ], null ]
coming stage 1
RowDataPacket {
  instanceid: 'ea817f34-3d06-419e-9d9a-2a302371b980',
  siteId: '250973722',
  eventType: 'ACTIVATED',
  timeStatus: '30 Minutes' }
Start Time
1517578616924
RowDataPacket {
  instanceid: 'ea817f34-3d06-419e-9d9a-2a302371b980',
  siteId: '250973722',
  eventType: 'ACTIVATED',
  timeStatus: '30 Minutes' }
DB Result
[ [ RowDataPacket { feeder_execution_id: 7 } ], null ]
coming stage 1
RowDataPacket {
  instanceid: 'ea817f34-3d06-419e-9d9a-2a302371b980',
  siteId: '250973722',
  eventType: 'ACTIVATED',
  timeStatus: '30 Minutes' }
Start Time
1517578619927
RowDataPacket {
  instanceid: 'ea817f34-3d06-419e-9d9a-2a302371b980',
  siteId: '250973722',
  eventType: 'ACTIVATED',
  timeStatus: '30 Minutes' }
DB Result
[ [ RowDataPacket { feeder_execution_id: 7 } ], null ]
coming stage 1
RowDataPacket {
  instanceid: 'ea817f34-3d06-419e-9d9a-2a302371b980',
  siteId: '250973722',
  eventType: 'ACTIVATED',
  timeStatus: '30 Minutes' }
Start Time
1517578622928
RowDataPacket {
  instanceid: 'ea817f34-3d06-419e-9d9a-2a302371b980',
  siteId: '250973722',
  eventType: 'ACTIVATED',
  timeStatus: '30 Minutes' }
DB Result
[ [ RowDataPacket { feeder_execution_id: 7 } ], null ]
coming stage 1
RowDataPacket {
  instanceid: 'ea817f34-3d06-419e-9d9a-2a302371b980',
  siteId: '250973722',
  eventType: 'ACTIVATED',
  timeStatus: '30 Minutes' }
Start Time
1517578625932
RowDataPacket {
  instanceid: 'ea817f34-3d06-419e-9d9a-2a302371b980',
  siteId: '250973722',
  eventType: 'ACTIVATED',
  timeStatus: '30 Minutes' }
DB Result
[ [ RowDataPacket { feeder_execution_id: 7 } ], null ]
coming stage 1
RowDataPacket {
  instanceid: 'ea817f34-3d06-419e-9d9a-2a302371b980',
  siteId: '250973722',
  eventType: 'ACTIVATED',
  timeStatus: '30 Minutes' }
Start Time
1517578628934
RowDataPacket {
  instanceid: 'ea817f34-3d06-419e-9d9a-2a302371b980',
  siteId: '250973722',
  eventType: 'ACTIVATED',
  timeStatus: '30 Minutes' }
DB Result
[ [ RowDataPacket { feeder_execution_id: 7 } ], null ]
``````````````````````````````````
``````````````````````````````````
``````````````````````````````````
``````````````````````````````````
`````````Refreshed````````````````
``````````````````````````````````
``````````````````````````````````
``````````````````````````````````
``````````````````````````````````
Fri, 02 Feb 2018 13:38:13 GMT express-session deprecated undefined resave option; provide resave option at server/index.js:29:9
Fri, 02 Feb 2018 13:38:13 GMT express-session deprecated undefined saveUninitialized option; provide saveUninitialized option at server/index.js:29:9
ok, server is running
{ address: '::', family: 'IPv6', port: 443 }
Started!
welocme
SELECT Email,FirstName,LastName,MailingStreet,MailingCity,MailingState,MailingCountry,AssistantName FROM Contact WHERE FirstName LIKE '%1%'
done looping
Tue, 12 Jun 2018 13:50:42 GMT express-session deprecated undefined resave option; provide resave option at server/index.js:33:9
Tue, 12 Jun 2018 13:50:42 GMT express-session deprecated undefined saveUninitialized option; provide saveUninitialized option at server/index.js:33:9
Warning: connect.session() MemoryStore is not
designed for a production environment, as it will leak
memory, and will not scale past a single process.
ok, server is running
{ address: '::', family: 'IPv6', port: 443 }
Started!
