[
  {
    "instanceId": "174",
    "segmentName": "Segment1",
    "segmentId": 1,
    "createdOn": "2017-11-22T08:35:41.000Z",
    "modifiedAt": "2017-11-22T10:55:00.000Z"
  },
  {
    "instanceId": "174",
    "segmentName": "Untitled Segment",
    "segmentId": 2,
    "createdOn": "2017-11-22T08:35:41.000Z",
    "modifiedAt": "2017-11-22T10:55:00.000Z"
  },
  {
    "instanceId": "174",
    "segmentName": "Untitled Segment",
    "segmentId": 3,
    "createdOn": "2017-11-22T08:35:41.000Z",
    "modifiedAt": "2017-11-22T10:55:00.000Z"
  },
  {
    "instanceId": "174",
    "segmentName": "Untitled Segment",
    "segmentId": 4,
    "createdOn": "2017-11-22T08:35:41.000Z",
    "modifiedAt": "2017-11-22T10:55:00.000Z"
  },
  {
    "instanceId": "174",
    "segmentName": "Untitled Segment",
    "segmentId": 5,
    "createdOn": "2017-11-22T08:35:41.000Z",
    "modifiedAt": "2017-11-22T10:55:00.000Z"
  },
  {
    "instanceId": "174",
    "segmentName": "Untitled Segment",
    "segmentId": 6,
    "createdOn": "2017-11-22T08:35:41.000Z",
    "modifiedAt": "2017-11-22T10:55:00.000Z"
  },
  {
    "instanceId": "174",
    "segmentName": "Untitled Segment",
    "segmentId": 7,
    "createdOn": "2017-11-22T08:35:41.000Z",
    "modifiedAt": "2017-11-22T10:55:00.000Z"
  },
  {
    "instanceId": "174",
    "segmentName": "Untitled Segment",
    "segmentId": 8,
    "createdOn": "2017-11-22T08:35:41.000Z",
    "modifiedAt": "2017-11-22T10:55:00.000Z"
  },
  {
    "instanceId": "174",
    "segmentName": "Untitled Segment",
    "segmentId": 9,
    "createdOn": "2017-11-22T08:35:41.000Z",
    "modifiedAt": "2017-11-22T10:55:00.000Z"
  },
  {
    "instanceId": "174",
    "segmentName": "Untitled Segment",
    "segmentId": 10,
    "createdOn": "2017-11-22T08:35:41.000Z",
    "modifiedAt": "2017-11-22T10:55:00.000Z"
  },
  {
    "instanceId": "174",
    "segmentName": "Untitled Segment",
    "segmentId": 11,
    "createdOn": "2017-11-22T08:35:41.000Z",
    "modifiedAt": "2017-11-22T10:55:00.000Z"
  },
  {
    "instanceId": "174",
    "segmentName": "Untitled Segment",
    "segmentId": 12,
    "createdOn": "2017-11-22T08:35:41.000Z",
    "modifiedAt": "2017-11-22T10:55:00.000Z"
  },
  {
    "instanceId": "174",
    "segmentName": "Untitled Segment",
    "segmentId": 13,
    "createdOn": "2017-11-22T08:35:41.000Z",
    "modifiedAt": "2017-11-22T10:55:00.000Z"
  },
  {
    "instanceId": "174",
    "segmentName": "Untitled Segment",
    "segmentId": 14,
    "createdOn": "2017-11-22T08:35:41.000Z",
    "modifiedAt": "2017-11-22T10:55:00.000Z"
  },
  {
    "instanceId": "174",
    "segmentName": "Untitled Segment",
    "segmentId": 15,
    "createdOn": "2017-11-22T08:35:41.000Z",
    "modifiedAt": "2017-11-22T10:55:00.000Z"
  },
  {
    "instanceId": "174",
    "segmentName": "Untitled Segment",
    "segmentId": 16,
    "createdOn": "2017-11-22T08:35:41.000Z",
    "modifiedAt": "2017-11-22T10:55:00.000Z"
  },
  {
    "instanceId": "174",
    "segmentName": "Untitled Segment",
    "segmentId": 17,
    "createdOn": "2017-11-22T08:35:41.000Z",
    "modifiedAt": "2017-11-22T10:55:00.000Z"
  },
  {
    "instanceId": "174",
    "segmentName": "Untitled Segment",
    "segmentId": 18,
    "createdOn": "2017-11-22T08:35:41.000Z",
    "modifiedAt": "2017-11-22T10:55:00.000Z"
  },
  {
    "instanceId": "174",
    "segmentName": "Untitled Segment",
    "segmentId": 19,
    "createdOn": "2017-11-22T08:35:41.000Z",
    "modifiedAt": "2017-11-22T10:55:00.000Z"
  },
  {
    "instanceId": "174",
    "segmentName": "Untitled Segment",
    "segmentId": 20,
    "createdOn": "2017-11-22T08:35:41.000Z",
    "modifiedAt": "2017-11-22T10:55:00.000Z"
  },
  {
    "instanceId": "174",
    "segmentName": "Untitled Segment",
    "segmentId": 21,
    "createdOn": "2017-11-22T08:35:41.000Z",
    "modifiedAt": "2017-11-22T10:55:00.000Z"
  },
  {
    "instanceId": "174",
    "segmentName": "Untitled Segment",
    "segmentId": 22,
    "createdOn": "2017-11-22T08:35:41.000Z",
    "modifiedAt": "2017-11-22T10:55:00.000Z"
  },
  {
    "instanceId": "174",
    "segmentName": "Untitled Segment",
    "segmentId": 23,
    "createdOn": "2017-11-22T08:35:41.000Z",
    "modifiedAt": "2017-11-22T10:55:00.000Z"
  },
  {
    "instanceId": "174",
    "segmentName": "Untitled Segment",
    "segmentId": 24,
    "createdOn": "2017-11-22T08:35:41.000Z",
    "modifiedAt": "2017-11-22T10:55:00.000Z"
  },
  {
    "instanceId": "174",
    "segmentName": "Untitled Segment",
    "segmentId": 25,
    "createdOn": "2017-11-22T08:35:41.000Z",
    "modifiedAt": "2017-11-22T10:55:00.000Z"
  },
  {
    "instanceId": "174",
    "segmentName": "Untitled Segment",
    "segmentId": 26,
    "createdOn": "2017-11-22T08:35:41.000Z",
    "modifiedAt": "2017-11-22T10:55:00.000Z"
  },
  {
    "instanceId": "174",
    "segmentName": "Untitled Segment",
    "segmentId": 27,
    "createdOn": "2017-11-22T08:35:41.000Z",
    "modifiedAt": "2017-11-22T10:55:00.000Z"
  },
  {
    "instanceId": "174",
    "segmentName": "Untitled Segment",
    "segmentId": 28,
    "createdOn": "2017-11-22T08:35:41.000Z",
    "modifiedAt": "2017-11-22T10:55:00.000Z"
  },
  {
    "instanceId": "174",
    "segmentName": "Untitled Segment",
    "segmentId": 29,
    "createdOn": "2017-11-22T08:35:41.000Z",
    "modifiedAt": "2017-11-22T10:55:00.000Z"
  },
  {
    "instanceId": "174",
    "segmentName": "Untitled Segment",
    "segmentId": 30,
    "createdOn": "2017-11-22T08:35:41.000Z",
    "modifiedAt": "2017-11-22T10:55:00.000Z"
  },
  {
    "instanceId": "174",
    "segmentName": "Untitled Segment",
    "segmentId": 31,
    "createdOn": "2017-11-22T08:35:41.000Z",
    "modifiedAt": "2017-11-22T10:55:00.000Z"
  },
  {
    "instanceId": "174",
    "segmentName": "Untitled Segment",
    "segmentId": 32,
    "createdOn": "2017-11-22T08:35:41.000Z",
    "modifiedAt": "2017-11-22T10:55:00.000Z"
  },
  {
    "instanceId": "174",
    "segmentName": "Untitled Segment",
    "segmentId": 33,
    "createdOn": "2017-11-22T08:35:41.000Z",
    "modifiedAt": "2017-11-22T10:55:00.000Z"
  },
  {
    "instanceId": "174",
    "segmentName": "Untitled Segment",
    "segmentId": 34,
    "createdOn": "2017-11-22T08:35:41.000Z",
    "modifiedAt": "2017-11-22T10:55:00.000Z"
  },
  {
    "instanceId": "174",
    "segmentName": "Untitled Segment",
    "segmentId": 35,
    "createdOn": "2017-11-22T08:35:41.000Z",
    "modifiedAt": "2017-11-22T10:55:00.000Z"
  },
  {
    "instanceId": "174",
    "segmentName": "Untitled Segment",
    "segmentId": 36,
    "createdOn": "2017-11-22T08:35:41.000Z",
    "modifiedAt": "2017-11-22T10:55:00.000Z"
  },
  {
    "instanceId": "174",
    "segmentName": "Untitled Segment",
    "segmentId": 37,
    "createdOn": "2017-11-22T08:35:41.000Z",
    "modifiedAt": "2017-11-22T10:55:00.000Z"
  },
  {
    "instanceId": "174",
    "segmentName": "Untitled Segment",
    "segmentId": 38,
    "createdOn": "2017-11-22T08:35:41.000Z",
    "modifiedAt": "2017-11-22T10:55:00.000Z"
  },
  {
    "instanceId": "174",
    "segmentName": "Untitled Segment",
    "segmentId": 39,
    "createdOn": "2017-11-22T08:35:41.000Z",
    "modifiedAt": "2017-11-22T10:55:00.000Z"
  },
  {
    "instanceId": "174",
    "segmentName": "Untitled Segment",
    "segmentId": 40,
    "createdOn": "2017-11-22T08:35:41.000Z",
    "modifiedAt": "2017-11-22T10:55:00.000Z"
  },
  {
    "instanceId": "174",
    "segmentName": "Untitled Segment",
    "segmentId": 41,
    "createdOn": "2017-11-22T08:35:41.000Z",
    "modifiedAt": "2017-11-22T10:55:00.000Z"
  },
  {
    "instanceId": "174",
    "segmentName": "Untitled Segment",
    "segmentId": 42,
    "createdOn": "2017-11-22T08:35:41.000Z",
    "modifiedAt": "2017-11-22T10:55:00.000Z"
  },
  {
    "instanceId": "174",
    "segmentName": "Untitled Segment",
    "segmentId": 43,
    "createdOn": "2017-11-22T08:35:41.000Z",
    "modifiedAt": "2017-11-22T10:55:00.000Z"
  },
  {
    "instanceId": "174",
    "segmentName": "Untitled Segment",
    "segmentId": 44,
    "createdOn": "2017-11-22T08:35:41.000Z",
    "modifiedAt": "2017-11-22T10:55:00.000Z"
  },
  {
    "instanceId": "174",
    "segmentName": "Untitled Segment",
    "segmentId": 45,
    "createdOn": "2017-11-22T08:35:41.000Z",
    "modifiedAt": "2017-11-22T10:55:00.000Z"
  },
  {
    "instanceId": "174",
    "segmentName": "Untitled Segment",
    "segmentId": 46,
    "createdOn": "2017-11-22T08:35:41.000Z",
    "modifiedAt": "2017-11-22T10:55:00.000Z"
  },
  {
    "instanceId": "174",
    "segmentName": "Untitled Segment",
    "segmentId": 47,
    "createdOn": "2017-11-22T08:35:41.000Z",
    "modifiedAt": "2017-11-22T10:55:00.000Z"
  },
  {
    "instanceId": "174",
    "segmentName": "Untitled Segment",
    "segmentId": 48,
    "createdOn": "2017-11-22T08:35:41.000Z",
    "modifiedAt": "2017-11-22T10:55:00.000Z"
  },
  {
    "instanceId": "174",
    "segmentName": "Untitled Segment",
    "segmentId": 49,
    "createdOn": "2017-11-22T08:35:41.000Z",
    "modifiedAt": "2017-11-22T10:55:00.000Z"
  },
  {
    "instanceId": "174",
    "segmentName": "Untitled Segment",
    "segmentId": 50,
    "createdOn": "2017-11-22T08:35:41.000Z",
    "modifiedAt": "2017-11-22T10:55:00.000Z"
  },
  {
    "instanceId": "174",
    "segmentName": "Untitled Segment",
    "segmentId": 51,
    "createdOn": "2017-11-22T08:35:41.000Z",
    "modifiedAt": "2017-11-22T10:55:00.000Z"
  },
  {
    "instanceId": "174",
    "segmentName": "Untitled Segment",
    "segmentId": 52,
    "createdOn": "2017-11-22T08:35:41.000Z",
    "modifiedAt": "2017-11-22T10:55:00.000Z"
  },
  {
    "instanceId": "174",
    "segmentName": "Untitled Segment",
    "segmentId": 53,
    "createdOn": "2017-11-22T08:35:41.000Z",
    "modifiedAt": "2017-11-22T10:55:00.000Z"
  },
  {
    "instanceId": "174",
    "segmentName": "Untitled Segment",
    "segmentId": 54,
    "createdOn": "2017-11-22T08:35:41.000Z",
    "modifiedAt": "2017-11-22T10:55:00.000Z"
  },
  {
    "instanceId": "174",
    "segmentName": "Untitled Segment",
    "segmentId": 55,
    "createdOn": "2017-11-22T08:35:41.000Z",
    "modifiedAt": "2017-11-22T10:55:00.000Z"
  },
  {
    "instanceId": "174",
    "segmentName": "Untitled Segment",
    "segmentId": 56,
    "createdOn": "2017-11-22T08:35:41.000Z",
    "modifiedAt": "2017-11-22T10:55:00.000Z"
  },
  {
    "instanceId": "174",
    "segmentName": "Untitled Segment",
    "segmentId": 57,
    "createdOn": "2017-11-22T08:35:41.000Z",
    "modifiedAt": "2017-11-22T10:55:00.000Z"
  },
  {
    "instanceId": "174",
    "segmentName": "Untitled Segment",
    "segmentId": 58,
    "createdOn": "2017-11-22T08:35:41.000Z",
    "modifiedAt": "2017-11-22T10:55:00.000Z"
  },
  {
    "instanceId": "174",
    "segmentName": "Untitled Segment",
    "segmentId": 59,
    "createdOn": "2017-11-22T08:35:41.000Z",
    "modifiedAt": "2017-11-22T10:55:00.000Z"
  },
  {
    "instanceId": "174",
    "segmentName": "Untitled Segment",
    "segmentId": 60,
    "createdOn": "2017-11-22T08:35:41.000Z",
    "modifiedAt": "2017-11-22T10:55:00.000Z"
  },
  {
    "instanceId": "174",
    "segmentName": "Untitled Segment",
    "segmentId": 61,
    "createdOn": "2017-11-22T08:35:41.000Z",
    "modifiedAt": "2017-11-22T10:55:00.000Z"
  },
  {
    "instanceId": "174",
    "segmentName": "Untitled Segment",
    "segmentId": 62,
    "createdOn": "2017-11-22T08:35:41.000Z",
    "modifiedAt": "2017-11-22T10:55:00.000Z"
  },
  {
    "instanceId": "174",
    "segmentName": "Untitled Segment",
    "segmentId": 63,
    "createdOn": "2017-11-22T08:35:41.000Z",
    "modifiedAt": "2017-11-22T10:55:00.000Z"
  },
  {
    "instanceId": "174",
    "segmentName": "Untitled Segment",
    "segmentId": 64,
    "createdOn": "2017-11-22T08:35:41.000Z",
    "modifiedAt": "2017-11-22T10:55:00.000Z"
  },
  {
    "instanceId": "174",
    "segmentName": "Untitled Segment",
    "segmentId": 65,
    "createdOn": "2017-11-22T08:35:41.000Z",
    "modifiedAt": "2017-11-22T10:55:00.000Z"
  },
  {
    "instanceId": "174",
    "segmentName": "Untitled Segment",
    "segmentId": 66,
    "createdOn": "2017-11-22T08:35:41.000Z",
    "modifiedAt": "2017-11-22T10:55:00.000Z"
  },
  {
    "instanceId": "174",
    "segmentName": "Untitled Segment",
    "segmentId": 67,
    "createdOn": "2017-11-22T08:35:41.000Z",
    "modifiedAt": "2017-11-22T10:55:00.000Z"
  },
  {
    "instanceId": "174",
    "segmentName": "Untitled Segment",
    "segmentId": 68,
    "createdOn": "2017-11-22T08:35:41.000Z",
    "modifiedAt": "2017-11-22T10:55:00.000Z"
  },
  {
    "instanceId": "174",
    "segmentName": "Untitled Segment",
    "segmentId": 69,
    "createdOn": "2017-11-22T08:35:41.000Z",
    "modifiedAt": "2017-11-22T10:55:00.000Z"
  },
  {
    "instanceId": "174",
    "segmentName": "Untitled Segment",
    "segmentId": 70,
    "createdOn": "2017-11-22T08:35:41.000Z",
    "modifiedAt": "2017-11-22T10:55:00.000Z"
  },
  {
    "instanceId": "174",
    "segmentName": "Untitled Segment",
    "segmentId": 71,
    "createdOn": "2017-11-22T08:35:41.000Z",
    "modifiedAt": "2017-11-22T10:55:00.000Z"
  },
  {
    "instanceId": "174",
    "segmentName": "Untitled Segment",
    "segmentId": 72,
    "createdOn": "2017-11-22T08:35:41.000Z",
    "modifiedAt": "2017-11-22T10:55:00.000Z"
  },
  {
    "instanceId": "174",
    "segmentName": "Untitled Segment",
    "segmentId": 73,
    "createdOn": "2017-11-22T08:35:41.000Z",
    "modifiedAt": "2017-11-22T10:55:00.000Z"
  },
  {
    "instanceId": "174",
    "segmentName": "Untitled Segment",
    "segmentId": 74,
    "createdOn": "2017-11-22T08:35:41.000Z",
    "modifiedAt": "2017-11-22T10:55:00.000Z"
  },
  {
    "instanceId": "174",
    "segmentName": "Untitled Segment",
    "segmentId": 75,
    "createdOn": "2017-11-22T08:35:41.000Z",
    "modifiedAt": "2017-11-22T10:55:00.000Z"
  },
  {
    "instanceId": "174",
    "segmentName": "Untitled Segment",
    "segmentId": 76,
    "createdOn": "2017-11-22T08:35:41.000Z",
    "modifiedAt": "2017-11-22T10:55:00.000Z"
  },
  {
    "instanceId": "174",
    "segmentName": "Untitled Segment",
    "segmentId": 77,
    "createdOn": "2017-11-22T08:35:41.000Z",
    "modifiedAt": "2017-11-22T10:55:00.000Z"
  },
  {
    "instanceId": "174",
    "segmentName": "Untitled Segment",
    "segmentId": 78,
    "createdOn": "2017-11-22T08:35:41.000Z",
    "modifiedAt": "2017-11-22T10:55:00.000Z"
  },
  {
    "instanceId": "174",
    "segmentName": "Untitled Segment",
    "segmentId": 79,
    "createdOn": "2017-11-22T08:35:41.000Z",
    "modifiedAt": "2017-11-22T10:55:00.000Z"
  },
  {
    "instanceId": "174",
    "segmentName": "Untitled Segment",
    "segmentId": 80,
    "createdOn": "2017-11-22T08:35:41.000Z",
    "modifiedAt": "2017-11-22T10:55:00.000Z"
  },
  {
    "instanceId": "174",
    "segmentName": "Untitled Segment",
    "segmentId": 81,
    "createdOn": "2017-11-22T08:35:41.000Z",
    "modifiedAt": "2017-11-22T10:55:00.000Z"
  },
  {
    "instanceId": "174",
    "segmentName": "Untitled Segment",
    "segmentId": 82,
    "createdOn": "2017-11-22T08:35:41.000Z",
    "modifiedAt": "2017-11-22T10:55:00.000Z"
  },
  {
    "instanceId": "174",
    "segmentName": "Untitled Segment",
    "segmentId": 83,
    "createdOn": "2017-11-22T08:35:41.000Z",
    "modifiedAt": "2017-11-22T10:55:00.000Z"
  },
  {
    "instanceId": "174",
    "segmentName": "Untitled Segment",
    "segmentId": 84,
    "createdOn": "2017-11-22T08:35:41.000Z",
    "modifiedAt": "2017-11-22T10:55:00.000Z"
  },
  {
    "instanceId": "174",
    "segmentName": "Untitled Segment",
    "segmentId": 85,
    "createdOn": "2017-11-22T08:35:41.000Z",
    "modifiedAt": "2017-11-22T10:55:00.000Z"
  },
  {
    "instanceId": "174",
    "segmentName": "Untitled Segment",
    "segmentId": 86,
    "createdOn": "2017-11-22T08:35:41.000Z",
    "modifiedAt": "2017-11-22T10:55:00.000Z"
  },
  {
    "instanceId": "174",
    "segmentName": "Untitled Segment",
    "segmentId": 87,
    "createdOn": "2017-11-22T08:35:41.000Z",
    "modifiedAt": "2017-11-22T10:55:00.000Z"
  },
  {
    "instanceId": "174",
    "segmentName": "Untitled Segment",
    "segmentId": 88,
    "createdOn": "2017-11-22T08:35:41.000Z",
    "modifiedAt": "2017-11-22T10:55:00.000Z"
  },
  {
    "instanceId": "174",
    "segmentName": "Untitled Segment",
    "segmentId": 89,
    "createdOn": "2017-11-22T08:35:41.000Z",
    "modifiedAt": "2017-11-22T10:55:00.000Z"
  },
  {
    "instanceId": "174",
    "segmentName": "Untitled Segment",
    "segmentId": 90,
    "createdOn": "2017-11-22T08:35:41.000Z",
    "modifiedAt": "2017-11-22T10:55:00.000Z"
  },
  {
    "instanceId": "174",
    "segmentName": "Test Segment 21",
    "segmentId": 91,
    "createdOn": "2017-11-22T08:35:41.000Z",
    "modifiedAt": "2017-11-22T10:55:00.000Z"
  },
  {
    "instanceId": "174",
    "segmentName": "Test Segment 22",
    "segmentId": 92,
    "createdOn": "2017-11-22T08:35:41.000Z",
    "modifiedAt": "2017-11-22T10:55:00.000Z"
  },
  {
    "instanceId": "174",
    "segmentName": "Test Segment 22",
    "segmentId": 93,
    "createdOn": "2017-11-22T08:35:41.000Z",
    "modifiedAt": "2017-11-22T10:55:00.000Z"
  },
  {
    "instanceId": "174",
    "segmentName": "Test Segment 22",
    "segmentId": 94,
    "createdOn": "2017-11-22T08:35:41.000Z",
    "modifiedAt": "2017-11-22T10:55:00.000Z"
  },
  {
    "instanceId": "174",
    "segmentName": "Test Segment 22",
    "segmentId": 95,
    "createdOn": "2017-11-22T08:35:41.000Z",
    "modifiedAt": "2017-11-22T10:55:00.000Z"
  },
  {
    "instanceId": "174",
    "segmentName": "Test Segment 22",
    "segmentId": 96,
    "createdOn": "2017-11-22T08:35:41.000Z",
    "modifiedAt": "2017-11-22T10:55:00.000Z"
  },
  {
    "instanceId": "174",
    "segmentName": "Test Segment 22",
    "segmentId": 97,
    "createdOn": "2017-11-22T08:35:41.000Z",
    "modifiedAt": "2017-11-22T10:55:00.000Z"
  },
  {
    "instanceId": "174",
    "segmentName": "Test Segment 22",
    "segmentId": 98,
    "createdOn": "2017-11-22T08:35:41.000Z",
    "modifiedAt": "2017-11-22T10:55:00.000Z"
  },
  {
    "instanceId": "209",
    "segmentName": "Segment Without Grouping",
    "segmentId": 99,
    "createdOn": "2017-11-22T08:35:41.000Z",
    "modifiedAt": "2017-11-22T10:55:00.000Z"
  },
  {
    "instanceId": "174",
    "segmentName": "Seg Without grouping 2",
    "segmentId": 100,
    "createdOn": "2017-11-22T08:35:41.000Z",
    "modifiedAt": "2017-11-22T10:55:00.000Z"
  },
  {
    "instanceId": "174",
    "segmentName": "Untitled Segment",
    "segmentId": 101,
    "createdOn": "2017-11-22T08:35:41.000Z",
    "modifiedAt": "2017-11-22T10:55:00.000Z"
  },
  {
    "instanceId": "174",
    "segmentName": "Untitled Segment",
    "segmentId": 102,
    "createdOn": "2017-11-22T08:35:41.000Z",
    "modifiedAt": "2017-11-22T10:55:00.000Z"
  },
  {
    "instanceId": "174",
    "segmentName": "Untitled Segment",
    "segmentId": 103,
    "createdOn": "2017-11-22T08:35:41.000Z",
    "modifiedAt": "2017-11-22T10:55:00.000Z"
  },
  {
    "instanceId": "174",
    "segmentName": "Seg with grouping level 2",
    "segmentId": 104,
    "createdOn": "2017-11-22T08:35:41.000Z",
    "modifiedAt": "2017-11-22T10:55:00.000Z"
  },
  {
    "instanceId": "174",
    "segmentName": "Untitled Segment",
    "segmentId": 105,
    "createdOn": "2017-11-22T08:35:41.000Z",
    "modifiedAt": "2017-11-22T10:55:00.000Z"
  },
  {
    "instanceId": "174",
    "segmentName": "Untitled Segment",
    "segmentId": 106,
    "createdOn": "2017-11-22T08:35:41.000Z",
    "modifiedAt": "2017-11-22T10:55:00.000Z"
  },
  {
    "instanceId": "174",
    "segmentName": "Untitled Segment",
    "segmentId": 107,
    "createdOn": "2017-11-22T08:35:41.000Z",
    "modifiedAt": "2017-11-22T10:55:00.000Z"
  },
  {
    "instanceId": "174",
    "segmentName": "Untitled Segment",
    "segmentId": 108,
    "createdOn": "2017-11-22T08:35:41.000Z",
    "modifiedAt": "2017-11-22T10:55:00.000Z"
  },
  {
    "instanceId": "174",
    "segmentName": "Untitled Segment",
    "segmentId": 109,
    "createdOn": "2017-11-22T08:35:41.000Z",
    "modifiedAt": "2017-11-22T10:55:00.000Z"
  },
  {
    "instanceId": "174",
    "segmentName": "Untitled Segment",
    "segmentId": 110,
    "createdOn": "2017-11-22T08:35:41.000Z",
    "modifiedAt": "2017-11-22T10:55:00.000Z"
  },
  {
    "instanceId": "174",
    "segmentName": "Untitled Segment",
    "segmentId": 111,
    "createdOn": "2017-11-22T08:35:41.000Z",
    "modifiedAt": "2017-11-22T10:55:00.000Z"
  },
  {
    "instanceId": "174",
    "segmentName": "Untitled Segment",
    "segmentId": 112,
    "createdOn": "2017-11-22T08:35:41.000Z",
    "modifiedAt": "2017-11-22T10:55:00.000Z"
  },
  {
    "instanceId": "174",
    "segmentName": "Untitled Segment",
    "segmentId": 113,
    "createdOn": "2017-11-22T08:35:41.000Z",
    "modifiedAt": "2017-11-22T10:55:00.000Z"
  },
  {
    "instanceId": "174",
    "segmentName": "Untitled Segment",
    "segmentId": 114,
    "createdOn": "2017-11-22T08:35:41.000Z",
    "modifiedAt": "2017-11-22T10:55:00.000Z"
  },
  {
    "instanceId": "174",
    "segmentName": "Untitled Segment",
    "segmentId": 115,
    "createdOn": "2017-11-22T08:35:41.000Z",
    "modifiedAt": "2017-11-22T10:55:00.000Z"
  },
  {
    "instanceId": "174",
    "segmentName": "Untitled Segment",
    "segmentId": 116,
    "createdOn": "2017-11-22T08:35:41.000Z",
    "modifiedAt": "2017-11-22T10:55:00.000Z"
  },
  {
    "instanceId": "174",
    "segmentName": "Untitled Segment",
    "segmentId": 117,
    "createdOn": "2017-11-22T08:35:41.000Z",
    "modifiedAt": "2017-11-22T10:55:00.000Z"
  },
  {
    "instanceId": "174",
    "segmentName": "undefined",
    "segmentId": 118,
    "createdOn": "2017-11-22T08:35:41.000Z",
    "modifiedAt": "2017-11-22T10:55:00.000Z"
  },
  {
    "instanceId": "174",
    "segmentName": "undefined",
    "segmentId": 119,
    "createdOn": "2017-11-22T08:35:41.000Z",
    "modifiedAt": "2017-11-22T10:55:00.000Z"
  },
  {
    "instanceId": "174",
    "segmentName": "undefined",
    "segmentId": 120,
    "createdOn": "2017-11-22T08:35:41.000Z",
    "modifiedAt": "2017-11-22T10:55:00.000Z"
  },
  {
    "instanceId": "174",
    "segmentName": "Untitled Segment",
    "segmentId": 121,
    "createdOn": "2017-11-22T08:35:41.000Z",
    "modifiedAt": "2017-11-22T10:55:00.000Z"
  },
  {
    "instanceId": "174",
    "segmentName": "Untitled Segment",
    "segmentId": 122,
    "createdOn": "2017-11-22T08:35:41.000Z",
    "modifiedAt": "2017-11-22T10:55:00.000Z"
  },
  {
    "instanceId": "174",
    "segmentName": "Test Seg 11082017",
    "segmentId": 125,
    "createdOn": "2017-11-22T08:35:41.000Z",
    "modifiedAt": "2017-11-22T10:55:00.000Z"
  },
  {
    "instanceId": "174",
    "segmentName": "Test Seg 11082017",
    "segmentId": 126,
    "createdOn": "2017-11-22T08:35:41.000Z",
    "modifiedAt": "2017-11-22T10:55:00.000Z"
  },
  {
    "instanceId": "174",
    "segmentName": "Test Seg 11082017",
    "segmentId": 127,
    "createdOn": "2017-11-22T08:35:41.000Z",
    "modifiedAt": "2017-11-22T10:55:00.000Z"
  },
  {
    "instanceId": "174",
    "segmentName": "Test Seg 11082017",
    "segmentId": 128,
    "createdOn": "2017-11-22T08:35:41.000Z",
    "modifiedAt": "2017-11-22T10:55:00.000Z"
  },
  {
    "instanceId": "174",
    "segmentName": "Test Seg 11082017",
    "segmentId": 129,
    "createdOn": "2017-11-22T08:35:41.000Z",
    "modifiedAt": "2017-11-22T10:55:00.000Z"
  },
  {
    "instanceId": "174",
    "segmentName": "Test Seg 11082017",
    "segmentId": 130,
    "createdOn": "2017-11-22T08:35:41.000Z",
    "modifiedAt": "2017-11-22T10:55:00.000Z"
  },
  {
    "instanceId": "174",
    "segmentName": "Test Seg 11082017",
    "segmentId": 131,
    "createdOn": "2017-11-22T08:35:41.000Z",
    "modifiedAt": "2017-11-22T10:55:00.000Z"
  },
  {
    "instanceId": "174",
    "segmentName": "Test Seg 11082017",
    "segmentId": 132,
    "createdOn": "2017-11-22T08:35:41.000Z",
    "modifiedAt": "2017-11-22T10:55:00.000Z"
  },
  {
    "instanceId": "174",
    "segmentName": "Test Seg 11082017",
    "segmentId": 133,
    "createdOn": "2017-11-22T08:35:41.000Z",
    "modifiedAt": "2017-11-22T10:55:00.000Z"
  },
  {
    "instanceId": "174",
    "segmentName": "Test Seg 11082017",
    "segmentId": 134,
    "createdOn": "2017-11-22T08:35:41.000Z",
    "modifiedAt": "2017-11-22T10:55:00.000Z"
  },
  {
    "instanceId": "174",
    "segmentName": "Test Seg 11Aug2017 1",
    "segmentId": 135,
    "createdOn": "2017-11-22T08:35:41.000Z",
    "modifiedAt": "2017-11-22T10:55:00.000Z"
  },
  {
    "instanceId": "174",
    "segmentName": "Test Seg 11Aug2017 2",
    "segmentId": 136,
    "createdOn": "2017-11-22T08:35:41.000Z",
    "modifiedAt": "2017-11-22T10:55:00.000Z"
  },
  {
    "instanceId": "174",
    "segmentName": "Test Seg 11Aug2017 2",
    "segmentId": 137,
    "createdOn": "2017-11-22T08:35:41.000Z",
    "modifiedAt": "2017-11-22T10:55:00.000Z"
  },
  {
    "instanceId": "174",
    "segmentName": "Test Seg 11Aug2017 3",
    "segmentId": 138,
    "createdOn": "2017-11-22T08:35:41.000Z",
    "modifiedAt": "2017-11-22T10:55:00.000Z"
  },
  {
    "instanceId": "174",
    "segmentName": "Test 11Aug2017 4",
    "segmentId": 139,
    "createdOn": "2017-11-22T08:35:41.000Z",
    "modifiedAt": "2017-11-22T10:55:00.000Z"
  },
  {
    "instanceId": "174",
    "segmentName": "Test 11Aug2017 4",
    "segmentId": 140,
    "createdOn": "2017-11-22T08:35:41.000Z",
    "modifiedAt": "2017-11-22T10:55:00.000Z"
  },
  {
    "instanceId": "174",
    "segmentName": "Test Seg 11082017",
    "segmentId": 141,
    "createdOn": "2017-11-22T08:35:41.000Z",
    "modifiedAt": "2017-11-22T10:55:00.000Z"
  },
  {
    "instanceId": "174",
    "segmentName": "Test Seg 11082017",
    "segmentId": 142,
    "createdOn": "2017-11-22T08:35:41.000Z",
    "modifiedAt": "2017-11-22T10:55:00.000Z"
  },
  {
    "instanceId": "174",
    "segmentName": "Test Seg 11082017",
    "segmentId": 143,
    "createdOn": "2017-11-22T08:35:41.000Z",
    "modifiedAt": "2017-11-22T10:55:00.000Z"
  },
  {
    "instanceId": "174",
    "segmentName": "Test Seg 11082017",
    "segmentId": 144,
    "createdOn": "2017-11-22T08:35:41.000Z",
    "modifiedAt": "2017-11-22T10:55:00.000Z"
  },
  {
    "instanceId": "174",
    "segmentName": "Test Seg 11082017",
    "segmentId": 145,
    "createdOn": "2017-11-22T08:35:41.000Z",
    "modifiedAt": "2017-11-22T10:55:00.000Z"
  },
  {
    "instanceId": "174",
    "segmentName": "Test Seg 11082017",
    "segmentId": 146,
    "createdOn": "2017-11-22T08:35:41.000Z",
    "modifiedAt": "2017-11-22T10:55:00.000Z"
  },
  {
    "instanceId": "174",
    "segmentName": "Test Seg 11082017",
    "segmentId": 147,
    "createdOn": "2017-11-22T08:35:41.000Z",
    "modifiedAt": "2017-11-22T10:55:00.000Z"
  },
  {
    "instanceId": "174",
    "segmentName": "Test Seg 11082017",
    "segmentId": 148,
    "createdOn": "2017-11-22T08:35:41.000Z",
    "modifiedAt": "2017-11-22T10:55:00.000Z"
  },
  {
    "instanceId": "174",
    "segmentName": "Test Seg 11082017",
    "segmentId": 149,
    "createdOn": "2017-11-22T08:35:41.000Z",
    "modifiedAt": "2017-11-22T10:55:00.000Z"
  },
  {
    "instanceId": "174",
    "segmentName": "Test Seg 11Aug2017 5",
    "segmentId": 150,
    "createdOn": "2017-11-22T08:35:41.000Z",
    "modifiedAt": "2017-11-22T10:55:00.000Z"
  },
  {
    "instanceId": "174",
    "segmentName": "Test Seg 11Aug2017 5",
    "segmentId": 151,
    "createdOn": "2017-11-22T08:35:41.000Z",
    "modifiedAt": "2017-11-22T10:55:00.000Z"
  },
  {
    "instanceId": "174",
    "segmentName": "Test Seg 11Aug2017 5",
    "segmentId": 152,
    "createdOn": "2017-11-22T08:35:41.000Z",
    "modifiedAt": "2017-11-22T10:55:00.000Z"
  },
  {
    "instanceId": "174",
    "segmentName": "Test Seg 11Aug2017 5",
    "segmentId": 153,
    "createdOn": "2017-11-22T08:35:41.000Z",
    "modifiedAt": "2017-11-22T10:55:00.000Z"
  },
  {
    "instanceId": "174",
    "segmentName": "Test Seg 11Aug2017 5",
    "segmentId": 154,
    "createdOn": "2017-11-22T08:35:41.000Z",
    "modifiedAt": "2017-11-22T10:55:00.000Z"
  },
  {
    "instanceId": "174",
    "segmentName": "Test Seg 11Aug2017 5",
    "segmentId": 155,
    "createdOn": "2017-11-22T08:35:41.000Z",
    "modifiedAt": "2017-11-22T10:55:00.000Z"
  },
  {
    "instanceId": "174",
    "segmentName": "Test Seg 11Aug2017 5",
    "segmentId": 156,
    "createdOn": "2017-11-22T08:35:41.000Z",
    "modifiedAt": "2017-11-22T10:55:00.000Z"
  },
  {
    "instanceId": "174",
    "segmentName": "Test Seg 11082017",
    "segmentId": 157,
    "createdOn": "2017-11-22T08:35:41.000Z",
    "modifiedAt": "2017-11-22T10:55:00.000Z"
  },
  {
    "instanceId": "174",
    "segmentName": "Test Seg 11Aug2017 6",
    "segmentId": 158,
    "createdOn": "2017-11-22T08:35:41.000Z",
    "modifiedAt": "2017-11-22T10:55:00.000Z"
  },
  {
    "instanceId": "174",
    "segmentName": "Seg31",
    "segmentId": 159,
    "createdOn": "2017-11-22T08:35:41.000Z",
    "modifiedAt": "2017-11-22T10:55:00.000Z"
  },
  {
    "instanceId": "174",
    "segmentName": "Test Seg 11Aug2017 6",
    "segmentId": 160,
    "createdOn": "2017-11-22T08:35:41.000Z",
    "modifiedAt": "2017-11-22T10:55:00.000Z"
  },
  {
    "instanceId": "174",
    "segmentName": "Test Seg 11082017",
    "segmentId": 161,
    "createdOn": "2017-11-22T08:35:41.000Z",
    "modifiedAt": "2017-11-22T10:55:00.000Z"
  },
  {
    "instanceId": "174",
    "segmentName": "Test Seg 11082017",
    "segmentId": 162,
    "createdOn": "2017-11-22T08:35:41.000Z",
    "modifiedAt": "2017-11-22T10:55:00.000Z"
  },
  {
    "instanceId": "174",
    "segmentName": "Test Seg 11082017",
    "segmentId": 163,
    "createdOn": "2017-11-22T08:35:41.000Z",
    "modifiedAt": "2017-11-22T10:55:00.000Z"
  },
  {
    "instanceId": "174",
    "segmentName": "Test Seg 11082017",
    "segmentId": 164,
    "createdOn": "2017-11-22T08:35:41.000Z",
    "modifiedAt": "2017-11-22T10:55:00.000Z"
  },
  {
    "instanceId": "174",
    "segmentName": "Test Seg 11082017",
    "segmentId": 165,
    "createdOn": "2017-11-22T08:35:41.000Z",
    "modifiedAt": "2017-11-22T10:55:00.000Z"
  },
  {
    "instanceId": "174",
    "segmentName": "Test Seg 11082017",
    "segmentId": 166,
    "createdOn": "2017-11-22T08:35:41.000Z",
    "modifiedAt": "2017-11-22T10:55:00.000Z"
  },
  {
    "instanceId": "174",
    "segmentName": "Test Seg 11082017",
    "segmentId": 167,
    "createdOn": "2017-11-22T08:35:41.000Z",
    "modifiedAt": "2017-11-22T10:55:00.000Z"
  },
  {
    "instanceId": "174",
    "segmentName": "Test Seg 11082017",
    "segmentId": 168,
    "createdOn": "2017-11-22T08:35:41.000Z",
    "modifiedAt": "2017-11-22T10:55:00.000Z"
  },
  {
    "instanceId": "174",
    "segmentName": "Test Seg 11082017",
    "segmentId": 169,
    "createdOn": "2017-11-22T08:35:41.000Z",
    "modifiedAt": "2017-11-22T10:55:00.000Z"
  },
  {
    "instanceId": "174",
    "segmentName": "Test Seg 11082017",
    "segmentId": 170,
    "createdOn": "2017-11-22T08:35:41.000Z",
    "modifiedAt": "2017-11-22T10:55:00.000Z"
  },
  {
    "instanceId": "174",
    "segmentName": "Test Seg 11082017",
    "segmentId": 171,
    "createdOn": "2017-11-22T08:35:41.000Z",
    "modifiedAt": "2017-11-22T10:55:00.000Z"
  },
  {
    "instanceId": "174",
    "segmentName": "Test Seg 11082017",
    "segmentId": 172,
    "createdOn": "2017-11-22T08:35:41.000Z",
    "modifiedAt": "2017-11-22T10:55:00.000Z"
  },
  {
    "instanceId": "174",
    "segmentName": "seg32",
    "segmentId": 173,
    "createdOn": "2017-11-22T08:35:41.000Z",
    "modifiedAt": "2017-11-22T10:55:00.000Z"
  },
  {
    "instanceId": "174",
    "segmentName": "Untitled Segment",
    "segmentId": 174,
    "createdOn": "2017-11-22T08:35:41.000Z",
    "modifiedAt": "2017-11-22T10:55:00.000Z"
  },
  {
    "instanceId": "174",
    "segmentName": "Untitled Segment",
    "segmentId": 175,
    "createdOn": "2017-11-22T08:35:41.000Z",
    "modifiedAt": "2017-11-22T10:55:00.000Z"
  },
  {
    "instanceId": "174",
    "segmentName": "Untitled Segment",
    "segmentId": 176,
    "createdOn": "2017-11-22T08:35:41.000Z",
    "modifiedAt": "2017-11-22T10:55:00.000Z"
  },
  {
    "instanceId": "174",
    "segmentName": "Untitled Segment",
    "segmentId": 177,
    "createdOn": "2017-11-22T08:35:41.000Z",
    "modifiedAt": "2017-11-22T10:55:00.000Z"
  },
  {
    "instanceId": "174",
    "segmentName": "Untitled Segment",
    "segmentId": 178,
    "createdOn": "2017-11-22T08:35:41.000Z",
    "modifiedAt": "2017-11-22T10:55:00.000Z"
  },
  {
    "instanceId": "174",
    "segmentName": "seg33",
    "segmentId": 179,
    "createdOn": "2017-11-22T08:35:41.000Z",
    "modifiedAt": "2017-11-22T10:55:00.000Z"
  },
  {
    "instanceId": "174",
    "segmentName": "seg36",
    "segmentId": 183,
    "createdOn": "2017-11-22T08:35:41.000Z",
    "modifiedAt": "2017-11-22T10:55:00.000Z"
  },
  {
    "instanceId": "174",
    "segmentName": "Test Seg 11082017",
    "segmentId": 184,
    "createdOn": "2017-11-22T08:35:41.000Z",
    "modifiedAt": "2017-11-22T10:55:00.000Z"
  },
  {
    "instanceId": "174",
    "segmentName": "Test Seg 11082017",
    "segmentId": 185,
    "createdOn": "2017-11-22T08:35:41.000Z",
    "modifiedAt": "2017-11-22T10:55:00.000Z"
  },
  {
    "instanceId": "174",
    "segmentName": "Test Seg 11082017",
    "segmentId": 186,
    "createdOn": "2017-11-22T08:35:41.000Z",
    "modifiedAt": "2017-11-22T10:55:00.000Z"
  },
  {
    "instanceId": "174",
    "segmentName": "Test Seg 11082017",
    "segmentId": 187,
    "createdOn": "2017-11-22T08:35:41.000Z",
    "modifiedAt": "2017-11-22T10:55:00.000Z"
  },
  {
    "instanceId": "174",
    "segmentName": "Test Seg 11082017",
    "segmentId": 188,
    "createdOn": "2017-11-22T08:35:41.000Z",
    "modifiedAt": "2017-11-22T10:55:00.000Z"
  },
  {
    "instanceId": "174",
    "segmentName": "Test Seg 11082017",
    "segmentId": 189,
    "createdOn": "2017-11-22T08:35:41.000Z",
    "modifiedAt": "2017-11-22T10:55:00.000Z"
  },
  {
    "instanceId": "174",
    "segmentName": "Test Seg 11082017",
    "segmentId": 190,
    "createdOn": "2017-11-22T08:35:41.000Z",
    "modifiedAt": "2017-11-22T10:55:00.000Z"
  },
  {
    "instanceId": "174",
    "segmentName": "Test Seg 11082017",
    "segmentId": 191,
    "createdOn": "2017-11-22T08:35:41.000Z",
    "modifiedAt": "2017-11-22T10:55:00.000Z"
  },
  {
    "instanceId": "174",
    "segmentName": "seg35",
    "segmentId": 192,
    "createdOn": "2017-11-22T08:35:41.000Z",
    "modifiedAt": "2017-11-22T10:55:00.000Z"
  },
  {
    "instanceId": "174",
    "segmentName": "seg35",
    "segmentId": 193,
    "createdOn": "2017-11-22T08:35:41.000Z",
    "modifiedAt": "2017-11-22T10:55:00.000Z"
  },
  {
    "instanceId": "174",
    "segmentName": "seg35",
    "segmentId": 194,
    "createdOn": "2017-11-22T08:35:41.000Z",
    "modifiedAt": "2017-11-22T10:55:00.000Z"
  },
  {
    "instanceId": "174",
    "segmentName": "seg35",
    "segmentId": 195,
    "createdOn": "2017-11-22T08:35:41.000Z",
    "modifiedAt": "2017-11-22T10:55:00.000Z"
  },
  {
    "instanceId": "174",
    "segmentName": "seg35",
    "segmentId": 196,
    "createdOn": "2017-11-22T08:35:41.000Z",
    "modifiedAt": "2017-11-22T10:55:00.000Z"
  },
  {
    "instanceId": "174",
    "segmentName": "seg35",
    "segmentId": 197,
    "createdOn": "2017-11-22T08:35:41.000Z",
    "modifiedAt": "2017-11-22T10:55:00.000Z"
  },
  {
    "instanceId": "174",
    "segmentName": "seg35",
    "segmentId": 198,
    "createdOn": "2017-11-22T08:35:41.000Z",
    "modifiedAt": "2017-11-22T10:55:00.000Z"
  },
  {
    "instanceId": "174",
    "segmentName": "seg35",
    "segmentId": 199,
    "createdOn": "2017-11-22T08:35:41.000Z",
    "modifiedAt": "2017-11-22T10:55:00.000Z"
  },
  {
    "instanceId": "174",
    "segmentName": "seg35",
    "segmentId": 200,
    "createdOn": "2017-11-22T08:35:41.000Z",
    "modifiedAt": "2017-11-22T10:55:00.000Z"
  },
  {
    "instanceId": "174",
    "segmentName": "seg35",
    "segmentId": 201,
    "createdOn": "2017-11-22T08:35:41.000Z",
    "modifiedAt": "2017-11-22T10:55:00.000Z"
  },
  {
    "instanceId": "174",
    "segmentName": "seg35",
    "segmentId": 202,
    "createdOn": "2017-11-22T08:35:41.000Z",
    "modifiedAt": "2017-11-22T10:55:00.000Z"
  },
  {
    "instanceId": "174",
    "segmentName": "seg35",
    "segmentId": 203,
    "createdOn": "2017-11-22T08:35:41.000Z",
    "modifiedAt": "2017-11-22T10:55:00.000Z"
  },
  {
    "instanceId": "174",
    "segmentName": "seg35",
    "segmentId": 204,
    "createdOn": "2017-11-22T08:35:41.000Z",
    "modifiedAt": "2017-11-22T10:55:00.000Z"
  },
  {
    "instanceId": "174",
    "segmentName": "seg35",
    "segmentId": 205,
    "createdOn": "2017-11-22T08:35:41.000Z",
    "modifiedAt": "2017-11-22T10:55:00.000Z"
  },
  {
    "instanceId": "174",
    "segmentName": "seg35",
    "segmentId": 206,
    "createdOn": "2017-11-22T08:35:41.000Z",
    "modifiedAt": "2017-11-22T10:55:00.000Z"
  },
  {
    "instanceId": "174",
    "segmentName": "seg35",
    "segmentId": 207,
    "createdOn": "2017-11-22T08:35:41.000Z",
    "modifiedAt": "2017-11-22T10:55:00.000Z"
  },
  {
    "instanceId": "174",
    "segmentName": "Test Seg 11082017",
    "segmentId": 208,
    "createdOn": "2017-11-22T08:35:41.000Z",
    "modifiedAt": "2017-11-22T10:55:00.000Z"
  },
  {
    "instanceId": "174",
    "segmentName": "seg35",
    "segmentId": 209,
    "createdOn": "2017-11-22T08:35:41.000Z",
    "modifiedAt": "2017-11-22T10:55:00.000Z"
  },
  {
    "instanceId": "174",
    "segmentName": "seg35",
    "segmentId": 210,
    "createdOn": "2017-11-22T08:35:41.000Z",
    "modifiedAt": "2017-11-22T10:55:00.000Z"
  },
  {
    "instanceId": "174",
    "segmentName": "seg35",
    "segmentId": 211,
    "createdOn": "2017-11-22T08:35:41.000Z",
    "modifiedAt": "2017-11-22T10:55:00.000Z"
  },
  {
    "instanceId": "174",
    "segmentName": "seg43",
    "segmentId": 212,
    "createdOn": "2017-11-22T08:35:41.000Z",
    "modifiedAt": "2017-11-22T10:55:00.000Z"
  },
  {
    "instanceId": "174",
    "segmentName": "seg43",
    "segmentId": 213,
    "createdOn": "2017-11-22T08:35:41.000Z",
    "modifiedAt": "2017-11-22T10:55:00.000Z"
  },
  {
    "instanceId": "174",
    "segmentName": "seg43",
    "segmentId": 214,
    "createdOn": "2017-11-22T08:35:41.000Z",
    "modifiedAt": "2017-11-22T10:55:00.000Z"
  },
  {
    "instanceId": "174",
    "segmentName": "seg43",
    "segmentId": 215,
    "createdOn": "2017-11-22T08:35:41.000Z",
    "modifiedAt": "2017-11-22T10:55:00.000Z"
  },
  {
    "instanceId": "174",
    "segmentName": "seg43",
    "segmentId": 216,
    "createdOn": "2017-11-22T08:35:41.000Z",
    "modifiedAt": "2017-11-22T10:55:00.000Z"
  },
  {
    "instanceId": "174",
    "segmentName": "seg43",
    "segmentId": 217,
    "createdOn": "2017-11-22T08:35:41.000Z",
    "modifiedAt": "2017-11-22T10:55:00.000Z"
  },
  {
    "instanceId": "174",
    "segmentName": "seg43",
    "segmentId": 218,
    "createdOn": "2017-11-22T08:35:41.000Z",
    "modifiedAt": "2017-11-22T10:55:00.000Z"
  },
  {
    "instanceId": "174",
    "segmentName": "seg43",
    "segmentId": 219,
    "createdOn": "2017-11-22T08:35:41.000Z",
    "modifiedAt": "2017-11-22T10:55:00.000Z"
  },
  {
    "instanceId": "174",
    "segmentName": "seg43",
    "segmentId": 220,
    "createdOn": "2017-11-22T08:35:41.000Z",
    "modifiedAt": "2017-11-22T10:55:00.000Z"
  },
  {
    "instanceId": "174",
    "segmentName": "seg45",
    "segmentId": 221,
    "createdOn": "2017-11-22T08:35:41.000Z",
    "modifiedAt": "2017-11-22T10:55:00.000Z"
  },
  {
    "instanceId": "174",
    "segmentName": "seg46",
    "segmentId": 222,
    "createdOn": "2017-11-22T08:35:41.000Z",
    "modifiedAt": "2017-11-22T10:55:00.000Z"
  },
  {
    "instanceId": "174",
    "segmentName": "seg47",
    "segmentId": 223,
    "createdOn": "2017-11-22T08:35:41.000Z",
    "modifiedAt": "2017-11-22T10:55:00.000Z"
  },
  {
    "instanceId": "174",
    "segmentName": "seg43",
    "segmentId": 224,
    "createdOn": "2017-11-22T08:35:41.000Z",
    "modifiedAt": "2017-11-22T10:55:00.000Z"
  },
  {
    "instanceId": "174",
    "segmentName": "seg43",
    "segmentId": 225,
    "createdOn": "2017-11-22T08:35:41.000Z",
    "modifiedAt": "2017-11-22T10:55:00.000Z"
  },
  {
    "instanceId": "174",
    "segmentName": "seg43",
    "segmentId": 226,
    "createdOn": "2017-11-22T08:35:41.000Z",
    "modifiedAt": "2017-11-22T10:55:00.000Z"
  },
  {
    "instanceId": "174",
    "segmentName": "seg43",
    "segmentId": 227,
    "createdOn": "2017-11-22T08:35:41.000Z",
    "modifiedAt": "2017-11-22T10:55:00.000Z"
  },
  {
    "instanceId": "174",
    "segmentName": "seg43",
    "segmentId": 228,
    "createdOn": "2017-11-22T08:35:41.000Z",
    "modifiedAt": "2017-11-22T10:55:00.000Z"
  },
  {
    "instanceId": "174",
    "segmentName": "seg43",
    "segmentId": 229,
    "createdOn": "2017-11-22T08:35:41.000Z",
    "modifiedAt": "2017-11-22T10:55:00.000Z"
  },
  {
    "instanceId": "174",
    "segmentName": "seg48",
    "segmentId": 230,
    "createdOn": "2017-11-22T08:35:41.000Z",
    "modifiedAt": "2017-11-22T10:55:00.000Z"
  },
  {
    "instanceId": "174",
    "segmentName": "seg53",
    "segmentId": 235,
    "createdOn": "2017-11-22T08:35:41.000Z",
    "modifiedAt": "2017-11-22T10:55:00.000Z"
  },
  {
    "instanceId": "174",
    "segmentName": "seg61",
    "segmentId": 238,
    "createdOn": "2017-11-22T08:35:41.000Z",
    "modifiedAt": "2017-11-22T10:55:00.000Z"
  },
  {
    "instanceId": "174",
    "segmentName": "seg65",
    "segmentId": 244,
    "createdOn": "2017-11-22T08:35:41.000Z",
    "modifiedAt": "2017-11-22T10:55:00.000Z"
  },
  {
    "instanceId": "174",
    "segmentName": "seg66",
    "segmentId": 245,
    "createdOn": "2017-11-22T08:35:41.000Z",
    "modifiedAt": "2017-11-22T10:55:00.000Z"
  },
  {
    "instanceId": "174",
    "segmentName": "seg67",
    "segmentId": 246,
    "createdOn": "2017-11-22T08:35:41.000Z",
    "modifiedAt": "2017-11-22T10:55:00.000Z"
  },
  {
    "instanceId": "174",
    "segmentName": "seg602",
    "segmentId": 250,
    "createdOn": "2017-11-22T08:35:41.000Z",
    "modifiedAt": "2017-11-22T10:55:00.000Z"
  },
  {
    "instanceId": "174",
    "segmentName": "seg71",
    "segmentId": 261,
    "createdOn": "2017-11-22T08:35:41.000Z",
    "modifiedAt": "2017-11-22T10:55:00.000Z"
  },
  {
    "instanceId": "174",
    "segmentName": "seg72",
    "segmentId": 262,
    "createdOn": "2017-11-22T08:35:41.000Z",
    "modifiedAt": "2017-11-22T10:55:00.000Z"
  },
  {
    "instanceId": "174",
    "segmentName": "seg705",
    "segmentId": 274,
    "createdOn": "2017-11-22T08:35:41.000Z",
    "modifiedAt": "2017-11-22T10:55:00.000Z"
  },
  {
    "instanceId": "174",
    "segmentName": "seg706",
    "segmentId": 275,
    "createdOn": "2017-11-22T08:35:41.000Z",
    "modifiedAt": "2017-11-22T10:55:00.000Z"
  },
  {
    "instanceId": "174",
    "segmentName": "seg714",
    "segmentId": 282,
    "createdOn": "2017-11-22T08:35:41.000Z",
    "modifiedAt": "2017-11-22T10:55:00.000Z"
  },
  {
    "instanceId": "174",
    "segmentName": "seg715",
    "segmentId": 283,
    "createdOn": "2017-11-22T08:35:41.000Z",
    "modifiedAt": "2017-11-22T10:55:00.000Z"
  },
  {
    "instanceId": "174",
    "segmentName": "seg716",
    "segmentId": 284,
    "createdOn": "2017-11-22T08:35:41.000Z",
    "modifiedAt": "2017-11-22T10:55:00.000Z"
  },
  {
    "instanceId": "174",
    "segmentName": "seg718",
    "segmentId": 286,
    "createdOn": "2017-11-22T08:35:41.000Z",
    "modifiedAt": "2017-11-22T10:55:00.000Z"
  },
  {
    "instanceId": "174",
    "segmentName": "seg43",
    "segmentId": 287,
    "createdOn": "2017-11-22T08:35:41.000Z",
    "modifiedAt": "2017-11-22T10:55:00.000Z"
  },
  {
    "instanceId": "174",
    "segmentName": "seg719",
    "segmentId": 288,
    "createdOn": "2017-11-22T08:35:41.000Z",
    "modifiedAt": "2017-11-22T10:55:00.000Z"
  },
  {
    "instanceId": "174",
    "segmentName": "seg719",
    "segmentId": 289,
    "createdOn": "2017-11-22T08:35:41.000Z",
    "modifiedAt": "2017-11-22T10:55:00.000Z"
  },
  {
    "instanceId": "174",
    "segmentName": "seg719",
    "segmentId": 290,
    "createdOn": "2017-11-22T08:35:41.000Z",
    "modifiedAt": "2017-11-22T10:55:00.000Z"
  },
  {
    "instanceId": "174",
    "segmentName": "seg719",
    "segmentId": 291,
    "createdOn": "2017-11-22T08:35:41.000Z",
    "modifiedAt": "2017-11-22T10:55:00.000Z"
  },
  {
    "instanceId": "174",
    "segmentName": "seg719",
    "segmentId": 292,
    "createdOn": "2017-11-22T08:35:41.000Z",
    "modifiedAt": "2017-11-22T10:55:00.000Z"
  },
  {
    "instanceId": "174",
    "segmentName": "seg719",
    "segmentId": 293,
    "createdOn": "2017-11-22T08:35:41.000Z",
    "modifiedAt": "2017-11-22T10:55:00.000Z"
  },
  {
    "instanceId": "174",
    "segmentName": "seg719",
    "segmentId": 294,
    "createdOn": "2017-11-22T08:35:41.000Z",
    "modifiedAt": "2017-11-22T10:55:00.000Z"
  },
  {
    "instanceId": "174",
    "segmentName": "seg719",
    "segmentId": 295,
    "createdOn": "2017-11-22T08:35:41.000Z",
    "modifiedAt": "2017-11-22T10:55:00.000Z"
  },
  {
    "instanceId": "174",
    "segmentName": "seg719",
    "segmentId": 296,
    "createdOn": "2017-11-22T08:35:41.000Z",
    "modifiedAt": "2017-11-22T10:55:00.000Z"
  },
  {
    "instanceId": "174",
    "segmentName": "seg719",
    "segmentId": 297,
    "createdOn": "2017-11-22T08:35:41.000Z",
    "modifiedAt": "2017-11-22T10:55:00.000Z"
  },
  {
    "instanceId": "174",
    "segmentName": "seg719",
    "segmentId": 298,
    "createdOn": "2017-11-22T08:35:41.000Z",
    "modifiedAt": "2017-11-22T10:55:00.000Z"
  },
  {
    "instanceId": "174",
    "segmentName": "seg719",
    "segmentId": 299,
    "createdOn": "2017-11-22T08:35:41.000Z",
    "modifiedAt": "2017-11-22T10:55:00.000Z"
  },
  {
    "instanceId": "174",
    "segmentName": "seg719",
    "segmentId": 300,
    "createdOn": "2017-11-22T08:35:41.000Z",
    "modifiedAt": "2017-11-22T10:55:00.000Z"
  },
  {
    "instanceId": "174",
    "segmentName": "seg719",
    "segmentId": 301,
    "createdOn": "2017-11-22T08:35:41.000Z",
    "modifiedAt": "2017-11-22T10:55:00.000Z"
  },
  {
    "instanceId": "174",
    "segmentName": "seg719",
    "segmentId": 302,
    "createdOn": "2017-11-22T08:35:41.000Z",
    "modifiedAt": "2017-11-22T10:55:00.000Z"
  },
  {
    "instanceId": "174",
    "segmentName": "seg719",
    "segmentId": 303,
    "createdOn": "2017-11-22T08:35:41.000Z",
    "modifiedAt": "2017-11-22T10:55:00.000Z"
  },
  {
    "instanceId": "174",
    "segmentName": "seg719",
    "segmentId": 304,
    "createdOn": "2017-11-22T08:35:41.000Z",
    "modifiedAt": "2017-11-22T10:55:00.000Z"
  },
  {
    "instanceId": "174",
    "segmentName": "seg719",
    "segmentId": 305,
    "createdOn": "2017-11-22T08:35:41.000Z",
    "modifiedAt": "2017-11-22T10:55:00.000Z"
  },
  {
    "instanceId": "174",
    "segmentName": "seg719",
    "segmentId": 306,
    "createdOn": "2017-11-22T08:35:41.000Z",
    "modifiedAt": "2017-11-22T10:55:00.000Z"
  },
  {
    "instanceId": "174",
    "segmentName": "seg719",
    "segmentId": 307,
    "createdOn": "2017-11-22T08:35:41.000Z",
    "modifiedAt": "2017-11-22T10:55:00.000Z"
  },
  {
    "instanceId": "174",
    "segmentName": "seg719",
    "segmentId": 308,
    "createdOn": "2017-11-22T08:35:41.000Z",
    "modifiedAt": "2017-11-22T10:55:00.000Z"
  },
  {
    "instanceId": "174",
    "segmentName": "seg719",
    "segmentId": 309,
    "createdOn": "2017-11-22T08:35:41.000Z",
    "modifiedAt": "2017-11-22T10:55:00.000Z"
  },
  {
    "instanceId": "174",
    "segmentName": "seg719",
    "segmentId": 310,
    "createdOn": "2017-11-22T08:35:41.000Z",
    "modifiedAt": "2017-11-22T10:55:00.000Z"
  },
  {
    "instanceId": "174",
    "segmentName": "seg719",
    "segmentId": 311,
    "createdOn": "2017-11-22T08:35:41.000Z",
    "modifiedAt": "2017-11-22T10:55:00.000Z"
  },
  {
    "instanceId": "174",
    "segmentName": "seg719",
    "segmentId": 312,
    "createdOn": "2017-11-22T08:35:41.000Z",
    "modifiedAt": "2017-11-22T10:55:00.000Z"
  },
  {
    "instanceId": "174",
    "segmentName": "seg719",
    "segmentId": 313,
    "createdOn": "2017-11-22T08:35:41.000Z",
    "modifiedAt": "2017-11-22T10:55:00.000Z"
  },
  {
    "instanceId": "174",
    "segmentName": "seg719",
    "segmentId": 314,
    "createdOn": "2017-11-22T08:35:41.000Z",
    "modifiedAt": "2017-11-22T10:55:00.000Z"
  },
  {
    "instanceId": "174",
    "segmentName": "seg719",
    "segmentId": 315,
    "createdOn": "2017-11-22T08:35:41.000Z",
    "modifiedAt": "2017-11-22T10:55:00.000Z"
  },
  {
    "instanceId": "174",
    "segmentName": "seg719",
    "segmentId": 316,
    "createdOn": "2017-11-22T08:35:41.000Z",
    "modifiedAt": "2017-11-22T10:55:00.000Z"
  },
  {
    "instanceId": "174",
    "segmentName": "seg719",
    "segmentId": 317,
    "createdOn": "2017-11-22T08:35:41.000Z",
    "modifiedAt": "2017-11-22T10:55:00.000Z"
  },
  {
    "instanceId": "174",
    "segmentName": "seg719",
    "segmentId": 318,
    "createdOn": "2017-11-22T08:35:41.000Z",
    "modifiedAt": "2017-11-22T10:55:00.000Z"
  },
  {
    "instanceId": "174",
    "segmentName": "seg719",
    "segmentId": 319,
    "createdOn": "2017-11-22T08:35:41.000Z",
    "modifiedAt": "2017-11-22T10:55:00.000Z"
  },
  {
    "instanceId": "174",
    "segmentName": "seg719",
    "segmentId": 320,
    "createdOn": "2017-11-22T08:35:41.000Z",
    "modifiedAt": "2017-11-22T10:55:00.000Z"
  },
  {
    "instanceId": "174",
    "segmentName": "seg719",
    "segmentId": 321,
    "createdOn": "2017-11-22T08:35:41.000Z",
    "modifiedAt": "2017-11-22T10:55:00.000Z"
  },
  {
    "instanceId": "174",
    "segmentName": "seg719",
    "segmentId": 322,
    "createdOn": "2017-11-22T08:35:41.000Z",
    "modifiedAt": "2017-11-22T10:55:00.000Z"
  },
  {
    "instanceId": "174",
    "segmentName": "seg719",
    "segmentId": 323,
    "createdOn": "2017-11-22T08:35:41.000Z",
    "modifiedAt": "2017-11-22T10:55:00.000Z"
  },
  {
    "instanceId": "174",
    "segmentName": "seg719",
    "segmentId": 324,
    "createdOn": "2017-11-22T08:35:41.000Z",
    "modifiedAt": "2017-11-22T10:55:00.000Z"
  },
  {
    "instanceId": "174",
    "segmentName": "seg719",
    "segmentId": 325,
    "createdOn": "2017-11-22T08:35:41.000Z",
    "modifiedAt": "2017-11-22T10:55:00.000Z"
  },
  {
    "instanceId": "174",
    "segmentName": "seg719",
    "segmentId": 326,
    "createdOn": "2017-11-22T08:35:41.000Z",
    "modifiedAt": "2017-11-22T10:55:00.000Z"
  },
  {
    "instanceId": "174",
    "segmentName": "seg719",
    "segmentId": 327,
    "createdOn": "2017-11-22T08:35:41.000Z",
    "modifiedAt": "2017-11-22T10:55:00.000Z"
  },
  {
    "instanceId": "174",
    "segmentName": "seg719",
    "segmentId": 328,
    "createdOn": "2017-11-22T08:35:41.000Z",
    "modifiedAt": "2017-11-22T10:55:00.000Z"
  },
  {
    "instanceId": "174",
    "segmentName": "seg719",
    "segmentId": 329,
    "createdOn": "2017-11-22T08:35:41.000Z",
    "modifiedAt": "2017-11-22T10:55:00.000Z"
  },
  {
    "instanceId": "174",
    "segmentName": "seg719",
    "segmentId": 330,
    "createdOn": "2017-11-22T08:35:41.000Z",
    "modifiedAt": "2017-11-22T10:55:00.000Z"
  },
  {
    "instanceId": "174",
    "segmentName": "seg719",
    "segmentId": 331,
    "createdOn": "2017-11-22T08:35:41.000Z",
    "modifiedAt": "2017-11-22T10:55:00.000Z"
  },
  {
    "instanceId": "174",
    "segmentName": "seg719",
    "segmentId": 332,
    "createdOn": "2017-11-22T08:35:41.000Z",
    "modifiedAt": "2017-11-22T10:55:00.000Z"
  },
  {
    "instanceId": "174",
    "segmentName": "seg719",
    "segmentId": 333,
    "createdOn": "2017-11-22T08:35:41.000Z",
    "modifiedAt": "2017-11-22T10:55:00.000Z"
  },
  {
    "instanceId": "174",
    "segmentName": "seg719",
    "segmentId": 334,
    "createdOn": "2017-11-22T08:35:41.000Z",
    "modifiedAt": "2017-11-22T10:55:00.000Z"
  },
  {
    "instanceId": "174",
    "segmentName": "seg719",
    "segmentId": 335,
    "createdOn": "2017-11-22T08:35:41.000Z",
    "modifiedAt": "2017-11-22T10:55:00.000Z"
  },
  {
    "instanceId": "174",
    "segmentName": "seg719",
    "segmentId": 336,
    "createdOn": "2017-11-22T08:35:41.000Z",
    "modifiedAt": "2017-11-22T10:55:00.000Z"
  },
  {
    "instanceId": "174",
    "segmentName": "seg719",
    "segmentId": 337,
    "createdOn": "2017-11-22T08:35:41.000Z",
    "modifiedAt": "2017-11-22T10:55:00.000Z"
  },
  {
    "instanceId": "174",
    "segmentName": "seg719",
    "segmentId": 338,
    "createdOn": "2017-11-22T08:35:41.000Z",
    "modifiedAt": "2017-11-22T10:55:00.000Z"
  },
  {
    "instanceId": "174",
    "segmentName": "seg719",
    "segmentId": 339,
    "createdOn": "2017-11-22T08:35:41.000Z",
    "modifiedAt": "2017-11-22T10:55:00.000Z"
  },
  {
    "instanceId": "174",
    "segmentName": "seg719",
    "segmentId": 340,
    "createdOn": "2017-11-22T08:35:41.000Z",
    "modifiedAt": "2017-11-22T10:55:00.000Z"
  },
  {
    "instanceId": "174",
    "segmentName": "seg719",
    "segmentId": 341,
    "createdOn": "2017-11-22T08:35:41.000Z",
    "modifiedAt": "2017-11-22T10:55:00.000Z"
  },
  {
    "instanceId": "174",
    "segmentName": "seg719",
    "segmentId": 342,
    "createdOn": "2017-11-22T08:35:41.000Z",
    "modifiedAt": "2017-11-22T10:55:00.000Z"
  },
  {
    "instanceId": "174",
    "segmentName": "seg719",
    "segmentId": 343,
    "createdOn": "2017-11-22T08:35:41.000Z",
    "modifiedAt": "2017-11-22T10:55:00.000Z"
  },
  {
    "instanceId": "174",
    "segmentName": "seg719",
    "segmentId": 344,
    "createdOn": "2017-11-22T08:35:41.000Z",
    "modifiedAt": "2017-11-22T10:55:00.000Z"
  },
  {
    "instanceId": "174",
    "segmentName": "seg719",
    "segmentId": 345,
    "createdOn": "2017-11-22T08:35:41.000Z",
    "modifiedAt": "2017-11-22T10:55:00.000Z"
  },
  {
    "instanceId": "174",
    "segmentName": "seg719",
    "segmentId": 346,
    "createdOn": "2017-11-22T08:35:41.000Z",
    "modifiedAt": "2017-11-22T10:55:00.000Z"
  },
  {
    "instanceId": "174",
    "segmentName": "seg719",
    "segmentId": 347,
    "createdOn": "2017-11-22T08:35:41.000Z",
    "modifiedAt": "2017-11-22T10:55:00.000Z"
  },
  {
    "instanceId": "174",
    "segmentName": "seg719",
    "segmentId": 348,
    "createdOn": "2017-11-22T08:35:41.000Z",
    "modifiedAt": "2017-11-22T10:55:00.000Z"
  },
  {
    "instanceId": "174",
    "segmentName": "seg719",
    "segmentId": 349,
    "createdOn": "2017-11-22T08:35:41.000Z",
    "modifiedAt": "2017-11-22T10:55:00.000Z"
  },
  {
    "instanceId": "174",
    "segmentName": "seg719",
    "segmentId": 350,
    "createdOn": "2017-11-22T08:35:41.000Z",
    "modifiedAt": "2017-11-22T10:55:00.000Z"
  },
  {
    "instanceId": "174",
    "segmentName": "seg719",
    "segmentId": 351,
    "createdOn": "2017-11-22T08:35:41.000Z",
    "modifiedAt": "2017-11-22T10:55:00.000Z"
  },
  {
    "instanceId": "174",
    "segmentName": "seg719",
    "segmentId": 352,
    "createdOn": "2017-11-22T08:35:41.000Z",
    "modifiedAt": "2017-11-22T10:55:00.000Z"
  },
  {
    "instanceId": "174",
    "segmentName": "seg719",
    "segmentId": 353,
    "createdOn": "2017-11-22T08:35:41.000Z",
    "modifiedAt": "2017-11-22T10:55:00.000Z"
  },
  {
    "instanceId": "174",
    "segmentName": "seg719",
    "segmentId": 354,
    "createdOn": "2017-11-22T08:35:41.000Z",
    "modifiedAt": "2017-11-22T10:55:00.000Z"
  },
  {
    "instanceId": "174",
    "segmentName": "seg719",
    "segmentId": 355,
    "createdOn": "2017-11-22T08:35:41.000Z",
    "modifiedAt": "2017-11-22T10:55:00.000Z"
  },
  {
    "instanceId": "174",
    "segmentName": "seg719",
    "segmentId": 356,
    "createdOn": "2017-11-22T08:35:41.000Z",
    "modifiedAt": "2017-11-22T10:55:00.000Z"
  },
  {
    "instanceId": "174",
    "segmentName": "seg719",
    "segmentId": 357,
    "createdOn": "2017-11-22T08:35:41.000Z",
    "modifiedAt": "2017-11-22T10:55:00.000Z"
  },
  {
    "instanceId": "174",
    "segmentName": "seg719",
    "segmentId": 358,
    "createdOn": "2017-11-22T08:35:41.000Z",
    "modifiedAt": "2017-11-22T10:55:00.000Z"
  },
  {
    "instanceId": "174",
    "segmentName": "seg719",
    "segmentId": 359,
    "createdOn": "2017-11-22T08:35:41.000Z",
    "modifiedAt": "2017-11-22T10:55:00.000Z"
  },
  {
    "instanceId": "174",
    "segmentName": "seg719",
    "segmentId": 360,
    "createdOn": "2017-11-22T08:35:41.000Z",
    "modifiedAt": "2017-11-22T10:55:00.000Z"
  },
  {
    "instanceId": "174",
    "segmentName": "seg80",
    "segmentId": 361,
    "createdOn": "2017-11-22T08:35:41.000Z",
    "modifiedAt": "2017-11-22T10:55:00.000Z"
  },
  {
    "instanceId": "174",
    "segmentName": "seg80",
    "segmentId": 362,
    "createdOn": "2017-11-22T08:35:41.000Z",
    "modifiedAt": "2017-11-22T10:55:00.000Z"
  },
  {
    "instanceId": "174",
    "segmentName": "seg81",
    "segmentId": 363,
    "createdOn": "2017-11-22T08:35:41.000Z",
    "modifiedAt": "2017-11-22T10:55:00.000Z"
  },
  {
    "instanceId": "174",
    "segmentName": "seg719",
    "segmentId": 364,
    "createdOn": "2017-11-22T08:35:41.000Z",
    "modifiedAt": "2017-11-22T10:55:00.000Z"
  },
  {
    "instanceId": "174",
    "segmentName": "seg719",
    "segmentId": 365,
    "createdOn": "2017-11-22T08:35:41.000Z",
    "modifiedAt": "2017-11-22T10:55:00.000Z"
  },
  {
    "instanceId": "174",
    "segmentName": "seg719",
    "segmentId": 366,
    "createdOn": "2017-11-22T08:35:41.000Z",
    "modifiedAt": "2017-11-22T10:55:00.000Z"
  },
  {
    "instanceId": "174",
    "segmentName": "seg719",
    "segmentId": 367,
    "createdOn": "2017-11-22T08:35:41.000Z",
    "modifiedAt": "2017-11-22T10:55:00.000Z"
  },
  {
    "instanceId": "174",
    "segmentName": "seg719",
    "segmentId": 368,
    "createdOn": "2017-11-22T08:35:41.000Z",
    "modifiedAt": "2017-11-22T10:55:00.000Z"
  },
  {
    "instanceId": "174",
    "segmentName": "seg719",
    "segmentId": 369,
    "createdOn": "2017-11-22T08:35:41.000Z",
    "modifiedAt": "2017-11-22T10:55:00.000Z"
  },
  {
    "instanceId": "174",
    "segmentName": "seg719",
    "segmentId": 370,
    "createdOn": "2017-11-22T08:35:41.000Z",
    "modifiedAt": "2017-11-22T10:55:00.000Z"
  },
  {
    "instanceId": "174",
    "segmentName": "seg719",
    "segmentId": 371,
    "createdOn": "2017-11-22T08:35:41.000Z",
    "modifiedAt": "2017-11-22T10:55:00.000Z"
  },
  {
    "instanceId": "174",
    "segmentName": "seg719",
    "segmentId": 372,
    "createdOn": "2017-11-22T08:35:41.000Z",
    "modifiedAt": "2017-11-22T10:55:00.000Z"
  },
  {
    "instanceId": "174",
    "segmentName": "seg82",
    "segmentId": 373,
    "createdOn": "2017-11-22T08:35:41.000Z",
    "modifiedAt": "2017-11-22T10:55:00.000Z"
  },
  {
    "instanceId": "174",
    "segmentName": "seg82",
    "segmentId": 374,
    "createdOn": "2017-11-22T08:35:41.000Z",
    "modifiedAt": "2017-11-22T10:55:00.000Z"
  },
  {
    "instanceId": "174",
    "segmentName": "seg82",
    "segmentId": 375,
    "createdOn": "2017-11-22T08:35:41.000Z",
    "modifiedAt": "2017-11-22T10:55:00.000Z"
  },
  {
    "instanceId": "174",
    "segmentName": "seg82",
    "segmentId": 376,
    "createdOn": "2017-11-22T08:35:41.000Z",
    "modifiedAt": "2017-11-22T10:55:00.000Z"
  },
  {
    "instanceId": "174",
    "segmentName": "seg82",
    "segmentId": 377,
    "createdOn": "2017-11-22T08:35:41.000Z",
    "modifiedAt": "2017-11-22T10:55:00.000Z"
  },
  {
    "instanceId": "174",
    "segmentName": "seg82",
    "segmentId": 378,
    "createdOn": "2017-11-22T08:35:41.000Z",
    "modifiedAt": "2017-11-22T10:55:00.000Z"
  },
  {
    "instanceId": "174",
    "segmentName": "seg82",
    "segmentId": 379,
    "createdOn": "2017-11-22T08:35:41.000Z",
    "modifiedAt": "2017-11-22T10:55:00.000Z"
  },
  {
    "instanceId": "174",
    "segmentName": "seg82",
    "segmentId": 380,
    "createdOn": "2017-11-22T08:35:41.000Z",
    "modifiedAt": "2017-11-22T10:55:00.000Z"
  },
  {
    "instanceId": "174",
    "segmentName": "seg82",
    "segmentId": 381,
    "createdOn": "2017-11-22T08:35:41.000Z",
    "modifiedAt": "2017-11-22T10:55:00.000Z"
  },
  {
    "instanceId": "174",
    "segmentName": "Untitled Segment",
    "segmentId": 382,
    "createdOn": "2017-11-22T08:35:41.000Z",
    "modifiedAt": "2017-11-22T10:55:00.000Z"
  },
  {
    "instanceId": "174",
    "segmentName": "Untitled Segment",
    "segmentId": 383,
    "createdOn": "2017-11-22T08:35:41.000Z",
    "modifiedAt": "2017-11-22T10:55:00.000Z"
  },
  {
    "instanceId": "174",
    "segmentName": "Untitled Segment",
    "segmentId": 384,
    "createdOn": "2017-11-22T08:35:41.000Z",
    "modifiedAt": "2017-11-22T10:55:00.000Z"
  },
  {
    "instanceId": "174",
    "segmentName": "Untitled Segment",
    "segmentId": 385,
    "createdOn": "2017-11-22T08:35:41.000Z",
    "modifiedAt": "2017-11-22T10:55:00.000Z"
  },
  {
    "instanceId": "174",
    "segmentName": "Untitled Segment",
    "segmentId": 386,
    "createdOn": "2017-11-22T08:35:41.000Z",
    "modifiedAt": "2017-11-22T10:55:00.000Z"
  },
  {
    "instanceId": "174",
    "segmentName": "A2",
    "segmentId": 387,
    "createdOn": "2017-11-22T08:35:41.000Z",
    "modifiedAt": "2017-11-22T10:55:00.000Z"
  },
  {
    "instanceId": "174",
    "segmentName": "C2",
    "segmentId": 388,
    "createdOn": "2017-11-22T08:35:41.000Z",
    "modifiedAt": "2017-11-22T10:55:00.000Z"
  },
  {
    "instanceId": "174",
    "segmentName": "A1",
    "segmentId": 389,
    "createdOn": "2017-11-22T08:35:41.000Z",
    "modifiedAt": "2017-11-22T10:55:00.000Z"
  },
  {
    "instanceId": "174",
    "segmentName": "A1",
    "segmentId": 390,
    "createdOn": "2017-11-22T08:35:41.000Z",
    "modifiedAt": "2017-11-22T10:55:00.000Z"
  },
  {
    "instanceId": "174",
    "segmentName": "C2",
    "segmentId": 391,
    "createdOn": "2017-11-22T08:35:41.000Z",
    "modifiedAt": "2017-11-22T10:55:00.000Z"
  },
  {
    "instanceId": "174",
    "segmentName": "I2",
    "segmentId": 392,
    "createdOn": "2017-11-22T08:35:41.000Z",
    "modifiedAt": "2017-11-22T10:55:00.000Z"
  },
  {
    "instanceId": "174",
    "segmentName": "ChatterBox",
    "segmentId": 393,
    "createdOn": "2017-11-22T08:35:41.000Z",
    "modifiedAt": "2017-11-22T10:55:00.000Z"
  },
  {
    "instanceId": "174",
    "segmentName": "ChatterBoxI78",
    "segmentId": 394,
    "createdOn": "2017-11-22T08:35:41.000Z",
    "modifiedAt": "2017-11-22T10:55:00.000Z"
  },
  {
    "instanceId": "174",
    "segmentName": "ParentChildRelationShip",
    "segmentId": 395,
    "createdOn": "2017-11-22T08:35:41.000Z",
    "modifiedAt": "2017-11-22T10:55:00.000Z"
  },
  {
    "instanceId": "174",
    "segmentName": "seg82",
    "segmentId": 396,
    "createdOn": "2017-11-22T08:35:41.000Z",
    "modifiedAt": "2017-11-22T10:55:00.000Z"
  },
  {
    "instanceId": "174",
    "segmentName": "seg82",
    "segmentId": 397,
    "createdOn": "2017-11-22T08:35:41.000Z",
    "modifiedAt": "2017-11-22T10:55:00.000Z"
  },
  {
    "instanceId": "174",
    "segmentName": "seg82",
    "segmentId": 398,
    "createdOn": "2017-11-22T08:35:41.000Z",
    "modifiedAt": "2017-11-22T10:55:00.000Z"
  },
  {
    "instanceId": "174",
    "segmentName": "seg82",
    "segmentId": 399,
    "createdOn": "2017-11-22T08:35:41.000Z",
    "modifiedAt": "2017-11-22T10:55:00.000Z"
  },
  {
    "instanceId": "174",
    "segmentName": "segTest3",
    "segmentId": 400,
    "createdOn": "2017-11-22T08:35:41.000Z",
    "modifiedAt": "2017-11-22T10:55:00.000Z"
  },
  {
    "instanceId": "174",
    "segmentName": "segTest4",
    "segmentId": 401,
    "createdOn": "2017-11-22T08:35:41.000Z",
    "modifiedAt": "2017-11-22T10:55:00.000Z"
  },
  {
    "instanceId": "174",
    "segmentName": "segTest5",
    "segmentId": 402,
    "createdOn": "2017-11-22T08:35:41.000Z",
    "modifiedAt": "2017-11-22T10:55:00.000Z"
  },
  {
    "instanceId": "174",
    "segmentName": "segTest5",
    "segmentId": 403,
    "createdOn": "2017-11-22T08:35:41.000Z",
    "modifiedAt": "2017-11-22T10:55:00.000Z"
  },
  {
    "instanceId": "174",
    "segmentName": "seg103",
    "segmentId": 404,
    "createdOn": "2017-11-22T08:35:41.000Z",
    "modifiedAt": "2017-11-22T10:55:00.000Z"
  },
  {
    "instanceId": "174",
    "segmentName": "seg110",
    "segmentId": 405,
    "createdOn": "2017-11-22T08:35:41.000Z",
    "modifiedAt": "2017-11-22T10:55:00.000Z"
  },
  {
    "instanceId": "174",
    "segmentName": "segTest5",
    "segmentId": 406,
    "createdOn": "2017-11-22T08:35:41.000Z",
    "modifiedAt": "2017-11-22T10:55:00.000Z"
  },
  {
    "instanceId": "174",
    "segmentName": "Seg120",
    "segmentId": 407,
    "createdOn": "2017-11-22T08:35:41.000Z",
    "modifiedAt": "2017-11-22T10:55:00.000Z"
  },
  {
    "instanceId": "174",
    "segmentName": "segTest5",
    "segmentId": 408,
    "createdOn": "2017-11-22T08:35:41.000Z",
    "modifiedAt": "2017-11-22T10:55:00.000Z"
  },
  {
    "instanceId": "174",
    "segmentName": "segTest5",
    "segmentId": 409,
    "createdOn": "2017-11-22T08:35:41.000Z",
    "modifiedAt": "2017-11-22T10:55:00.000Z"
  },
  {
    "instanceId": "174",
    "segmentName": "segTest5",
    "segmentId": 410,
    "createdOn": "2017-11-22T08:35:41.000Z",
    "modifiedAt": "2017-11-22T10:55:00.000Z"
  },
  {
    "instanceId": "174",
    "segmentName": "segTest5",
    "segmentId": 411,
    "createdOn": "2017-11-22T08:35:41.000Z",
    "modifiedAt": "2017-11-22T10:55:00.000Z"
  },
  {
    "instanceId": "174",
    "segmentName": "segTest5",
    "segmentId": 412,
    "createdOn": "2017-11-22T08:35:41.000Z",
    "modifiedAt": "2017-11-22T10:55:00.000Z"
  },
  {
    "instanceId": "174",
    "segmentName": "segTest5",
    "segmentId": 413,
    "createdOn": "2017-11-22T08:35:41.000Z",
    "modifiedAt": "2017-11-22T10:55:00.000Z"
  },
  {
    "instanceId": "174",
    "segmentName": "segTest5",
    "segmentId": 414,
    "createdOn": "2017-11-22T08:35:41.000Z",
    "modifiedAt": "2017-11-22T10:55:00.000Z"
  },
  {
    "instanceId": "174",
    "segmentName": "segTest5",
    "segmentId": 415,
    "createdOn": "2017-11-22T08:35:41.000Z",
    "modifiedAt": "2017-11-22T10:55:00.000Z"
  },
  {
    "instanceId": "174",
    "segmentName": "segTest5",
    "segmentId": 416,
    "createdOn": "2017-11-22T08:35:41.000Z",
    "modifiedAt": "2017-11-22T10:55:00.000Z"
  },
  {
    "instanceId": "174",
    "segmentName": "segTest5",
    "segmentId": 417,
    "createdOn": "2017-11-22T08:35:41.000Z",
    "modifiedAt": "2017-11-22T10:55:00.000Z"
  },
  {
    "instanceId": "174",
    "segmentName": "segTest5",
    "segmentId": 418,
    "createdOn": "2017-11-22T08:35:41.000Z",
    "modifiedAt": "2017-11-22T10:55:00.000Z"
  },
  {
    "instanceId": "174",
    "segmentName": "segTest5",
    "segmentId": 419,
    "createdOn": "2017-11-22T08:35:41.000Z",
    "modifiedAt": "2017-11-22T10:55:00.000Z"
  },
  {
    "instanceId": "174",
    "segmentName": "segTest5",
    "segmentId": 420,
    "createdOn": "2017-11-22T08:35:41.000Z",
    "modifiedAt": "2017-11-22T10:55:00.000Z"
  },
  {
    "instanceId": "174",
    "segmentName": "segTest5",
    "segmentId": 421,
    "createdOn": "2017-11-22T08:35:41.000Z",
    "modifiedAt": "2017-11-22T10:55:00.000Z"
  },
  {
    "instanceId": "174",
    "segmentName": "segTest5",
    "segmentId": 422,
    "createdOn": "2017-11-22T08:35:41.000Z",
    "modifiedAt": "2017-11-22T10:55:00.000Z"
  },
  {
    "instanceId": "174",
    "segmentName": "segTest5",
    "segmentId": 423,
    "createdOn": "2017-11-22T08:35:41.000Z",
    "modifiedAt": "2017-11-22T10:55:00.000Z"
  },
  {
    "instanceId": "174",
    "segmentName": "segTest5",
    "segmentId": 424,
    "createdOn": "2017-11-22T08:35:41.000Z",
    "modifiedAt": "2017-11-22T10:55:00.000Z"
  },
  {
    "instanceId": "174",
    "segmentName": "segTest5",
    "segmentId": 425,
    "createdOn": "2017-11-22T08:35:41.000Z",
    "modifiedAt": "2017-11-22T10:55:00.000Z"
  },
  {
    "instanceId": "174",
    "segmentName": "segTest5",
    "segmentId": 426,
    "createdOn": "2017-11-22T08:35:41.000Z",
    "modifiedAt": "2017-11-22T10:55:00.000Z"
  },
  {
    "instanceId": "174",
    "segmentName": "segTest5",
    "segmentId": 427,
    "createdOn": "2017-11-22T08:35:41.000Z",
    "modifiedAt": "2017-11-22T10:55:00.000Z"
  },
  {
    "instanceId": "174",
    "segmentName": "Fish",
    "segmentId": 428,
    "createdOn": "2017-11-22T08:35:41.000Z",
    "modifiedAt": "2017-11-22T10:55:00.000Z"
  },
  {
    "instanceId": "174",
    "segmentName": "segTest5",
    "segmentId": 429,
    "createdOn": "2017-11-22T08:35:41.000Z",
    "modifiedAt": "2017-11-22T10:55:00.000Z"
  },
  {
    "instanceId": "174",
    "segmentName": "segTest5",
    "segmentId": 430,
    "createdOn": "2017-11-22T08:35:41.000Z",
    "modifiedAt": "2017-11-22T10:55:00.000Z"
  },
  {
    "instanceId": "174",
    "segmentName": "segTest5",
    "segmentId": 431,
    "createdOn": "2017-11-22T08:35:41.000Z",
    "modifiedAt": "2017-11-22T10:55:00.000Z"
  },
  {
    "instanceId": "174",
    "segmentName": "seg121",
    "segmentId": 432,
    "createdOn": "2017-11-22T08:35:41.000Z",
    "modifiedAt": "2017-11-22T10:55:00.000Z"
  },
  {
    "instanceId": "209",
    "segmentName": "seg130",
    "segmentId": 433,
    "createdOn": "2017-11-22T08:35:41.000Z",
    "modifiedAt": "2017-11-22T10:55:00.000Z"
  },
  {
    "instanceId": "174",
    "segmentName": "Practise",
    "segmentId": 434,
    "createdOn": "2017-11-22T08:35:41.000Z",
    "modifiedAt": "2017-11-22T10:55:00.000Z"
  },
  {
    "instanceId": "209",
    "segmentName": "seg140",
    "segmentId": 435,
    "createdOn": "2017-11-22T08:35:41.000Z",
    "modifiedAt": "2017-11-22T10:55:00.000Z"
  },
  {
    "instanceId": "174",
    "segmentName": "Paraffin",
    "segmentId": 436,
    "createdOn": "2017-11-22T08:35:41.000Z",
    "modifiedAt": "2017-11-22T10:55:00.000Z"
  },
  {
    "instanceId": "209",
    "segmentName": "seg150",
    "segmentId": 437,
    "createdOn": "2017-11-22T08:35:41.000Z",
    "modifiedAt": "2017-11-22T10:55:00.000Z"
  },
  {
    "instanceId": "209",
    "segmentName": "seg151",
    "segmentId": 438,
    "createdOn": "2017-11-22T08:35:41.000Z",
    "modifiedAt": "2017-11-22T10:55:00.000Z"
  },
  {
    "instanceId": "209",
    "segmentName": "seg152",
    "segmentId": 439,
    "createdOn": "2017-11-22T08:35:41.000Z",
    "modifiedAt": "2017-11-22T10:55:00.000Z"
  },
  {
    "instanceId": "209",
    "segmentName": "seg160",
    "segmentId": 440,
    "createdOn": "2017-11-22T08:35:41.000Z",
    "modifiedAt": "2017-11-22T10:55:00.000Z"
  },
  {
    "instanceId": "209",
    "segmentName": "seg161",
    "segmentId": 441,
    "createdOn": "2017-11-22T08:35:41.000Z",
    "modifiedAt": "2017-11-22T10:55:00.000Z"
  },
  {
    "instanceId": "209",
    "segmentName": "seg162",
    "segmentId": 442,
    "createdOn": "2017-11-22T08:35:41.000Z",
    "modifiedAt": "2017-11-22T10:55:00.000Z"
  },
  {
    "instanceId": "209",
    "segmentName": "seg163",
    "segmentId": 443,
    "createdOn": "2017-11-22T08:35:41.000Z",
    "modifiedAt": "2017-11-22T10:55:00.000Z"
  },
  {
    "instanceId": "209",
    "segmentName": "seg164",
    "segmentId": 444,
    "createdOn": "2017-11-22T08:35:41.000Z",
    "modifiedAt": "2017-11-22T10:55:00.000Z"
  },
  {
    "instanceId": "174",
    "segmentName": "Parent",
    "segmentId": 445,
    "createdOn": "2017-11-22T08:35:41.000Z",
    "modifiedAt": "2017-11-22T10:55:00.000Z"
  },
  {
    "instanceId": "209",
    "segmentName": "seg170",
    "segmentId": 446,
    "createdOn": "2017-11-22T08:35:41.000Z",
    "modifiedAt": "2017-11-22T10:55:00.000Z"
  },
  {
    "instanceId": "174",
    "segmentName": "seg171",
    "segmentId": 447,
    "createdOn": "2017-11-22T08:35:41.000Z",
    "modifiedAt": "2017-11-22T10:55:00.000Z"
  },
  {
    "instanceId": "209",
    "segmentName": "seg172",
    "segmentId": 448,
    "createdOn": "2017-11-22T08:35:41.000Z",
    "modifiedAt": "2017-11-22T10:55:00.000Z"
  },
  {
    "instanceId": "174",
    "segmentName": "Pile Up",
    "segmentId": 449,
    "createdOn": "2017-11-22T08:35:41.000Z",
    "modifiedAt": "2017-11-22T10:55:00.000Z"
  },
  {
    "instanceId": "174",
    "segmentName": "Persistence",
    "segmentId": 450,
    "createdOn": "2017-11-22T08:35:41.000Z",
    "modifiedAt": "2017-11-22T10:55:00.000Z"
  },
  {
    "instanceId": "230",
    "segmentName": "Profile",
    "segmentId": 451,
    "createdOn": "2017-11-22T08:35:41.000Z",
    "modifiedAt": "2017-11-22T10:55:00.000Z"
  },
  {
    "instanceId": "174",
    "segmentName": "Prologue",
    "segmentId": 452,
    "createdOn": "2017-11-22T08:35:41.000Z",
    "modifiedAt": "2017-11-22T10:55:00.000Z"
  },
  {
    "instanceId": "174",
    "segmentName": "Plugin",
    "segmentId": 453,
    "createdOn": "2017-11-22T08:35:41.000Z",
    "modifiedAt": "2017-11-22T10:55:00.000Z"
  },
  {
    "instanceId": "174",
    "segmentName": "Palindrome",
    "segmentId": 454,
    "createdOn": "2017-11-22T08:35:41.000Z",
    "modifiedAt": "2017-11-22T10:55:00.000Z"
  },
  {
    "instanceId": "174",
    "segmentName": "Paramount",
    "segmentId": 455,
    "createdOn": "2017-11-22T08:35:41.000Z",
    "modifiedAt": "2017-11-22T10:55:00.000Z"
  },
  {
    "instanceId": "174",
    "segmentName": "seg35",
    "segmentId": 457,
    "createdOn": "2017-11-22T09:39:22.000Z",
    "modifiedAt": "2017-11-22T10:55:00.000Z"
  },
  {
    "instanceId": "230",
    "segmentName": "Torment",
    "segmentId": 460,
    "createdOn": "2017-11-22T11:25:11.000Z",
    "modifiedAt": "2017-11-22T11:25:11.000Z"
  }
]