{
  "host": "localhost",
  "port": 443,
  "dbConfig":{
  	"host":			"ec2-54-202-113-3.us-west-2.compute.amazonaws.com",
  	"user":			"root",
  	"password":		"p0rtq1!@Aug",
  	"database":		"segmentation"
  },
   "eloquaConfig":{
    "TokenUrl" : 	"https://login.eloqua.com/auth/oauth2/token/",
    "redirectUri" : "https://apps.portqii.com/edidev/instance/saveToken",
    "AppId" : 		"f7b33a3e-b64d-4d14-969d-20be1620217c",
    "ClientSecret": "1SPZP3LoJXkaAVDEeJdRSedYpvtq865Kl0841afPpMsxC~KHY2PVfnNGDY3PQFV7flehKd0Q4blUH20xSWO0bVMvIgXu29-ZOxYZ"
  },
   "sfdcConfig":{
    "ClientId" : 	"3MVG9ZL0ppGP5UrAPt8LHhefUfGZ96qc1dpWfISu_Wr_d4R1ol_FFpToKg2swql.9IBorOqbe0xRM4pZrkPRU",
    "ClientSecret":	"3223318913841702787",
    "Username" : 	"rahul.sharma@crmsci.com",
    "Password" : 	"Krishna22",
    "SecurityToken":"DC43Z8gAZfdL2w8daI8iLtFw",
    "LoginUri" : 	"http://login.salesforce.com",
    "TokenUrl" : 	"https://login.salesforce.com/services/oauth2/token"
  }
}